<?xml version="1.0" encoding="utf-8"?>
<!-- Generator: Adobe Illustrator 23.0.2, SVG Export Plug-In . SVG Version: 6.00 Build 0)  -->
<svg version="1.1" xmlns="http://www.w3.org/2000/svg" xmlns:xlink="http://www.w3.org/1999/xlink" x="0px" y="0px" width="600px"
	 height="600px" viewBox="0 0 600 600" style="enable-background:new 0 0 600 600;" xml:space="preserve">
<g id="france">
	<path id="bleu" style="fill:#4F71C6;" d="M265,1286.8C159.95,1326.54,85.6,1424.92,85.6,1540c0,115.08,74.35,213.46,179.4,253.2
		V1286.8z"/>
	<path id="red" style="fill:#C95050;" d="M473,1286.8c105.05,39.74,179.4,138.12,179.4,253.2c0,115.08-74.35,213.46-179.4,253.2
		V1286.8z"/>
	
		<ellipse id="circle_4_" style="fill:none;stroke:#FFFFFF;stroke-width:13;stroke-miterlimit:10;" cx="368.5" cy="1540.5" rx="283" ry="272"/>
	<path id="white" style="fill:#FFFFFF;" d="M265,1793.04c32.19,12.23,67.28,18.96,104,18.96c36.72,0,71.81-6.73,104-18.96v-506.08
		c-32.2-12.23-67.28-18.96-104-18.96c-36.72,0-71.8,6.72-104,18.96V1793.04z"/>
</g>
<g id="youtube">
	<circle style="fill:#FF0000;stroke:#EAEEEF;stroke-width:5;stroke-miterlimit:10;" cx="-1497.5" cy="2166.5" r="126"/>
	<circle style="fill:#FF6600;" cx="-1520.5" cy="2181.5" r="96.5"/>
	<polygon id="triangle" style="fill:#FFFFFF;" points="-1537,2210.16 -1467.59,2170.08 -1537,2130 	"/>
	<path id="O" style="fill:#FFFFFF;" d="M-1351.98,2272.96c-3.97-2.69-6.82-6.85-8.49-12.52c-1.67-5.67-2.53-13.2-2.53-22.62v-12.81
		c0-9.51,0.96-17.14,2.88-22.9c1.92-5.77,4.93-9.96,9-12.59c4.07-2.63,9.42-3.97,16.05-3.97c6.53,0,11.76,1.35,15.7,4.04
		c3.94,2.69,6.82,6.89,8.65,12.59c1.83,5.7,2.72,13.33,2.72,22.81v12.81c0,9.42-0.9,16.98-2.66,22.68c-1.76,5.7-4.64,9.9-8.65,12.52
		c-3.97,2.63-9.39,3.97-16.21,3.97C-1342.5,2277-1348.01,2275.66-1351.98,2272.96 M-1329.68,2259.38c1.1-2.91,1.68-7.66,1.68-14.22
		v-27.77c0-6.4-0.55-11.05-1.68-14.03c-1.1-2.94-3.07-4.43-5.88-4.43c-2.72,0-4.62,1.49-5.75,4.43c-1.1,2.94-1.68,7.63-1.68,14.03
		v27.77c0,6.6,0.52,11.35,1.58,14.22c1.07,2.91,3.01,4.36,5.82,4.36C-1332.75,2263.74-1330.81,2262.29-1329.68,2259.38"/>
	<path id="E" style="fill:#FFFFFF;" d="M-1051,2238.03v4.38c0,5.57,0.16,9.73,0.53,12.53c0.33,2.77,1.06,4.82,2.14,6.08
		c1.09,1.26,2.77,1.92,5.04,1.92c3.06,0,5.17-1.13,6.29-3.4c1.12-2.27,1.75-6.05,1.85-11.34l17.63,0.98
		c0.1,0.75,0.13,1.79,0.13,3.12c0,8.03-2.31,14.02-6.89,17.98c-4.58,3.97-11.07,5.95-19.47,5.95c-10.08,0-17.13-3.02-21.19-9.07
		c-4.05-6.05-6.06-15.37-6.06-28.03v-15.15c0-13.04,2.02-22.52,6.03-28.53c4.01-5.98,10.9-8.98,20.66-8.98
		c6.73,0,11.88,1.23,15.48,3.69c3.6,2.46,6.13,6.27,7.61,11.46c1.45,5.2,2.21,12.38,2.21,21.51V2238h-32V2238.03z M-1048.56,2201.09
		c-0.96,1.23-1.6,3.24-1.94,6.02c-0.34,2.77-0.49,7.02-0.49,12.66v6.24h14v-6.24c0-5.57-0.19-9.79-0.56-12.66
		c-0.37-2.86-1.05-4.91-2-6.08c-0.96-1.17-2.47-1.76-4.5-1.76C-1046.1,2199.23-1047.61,2199.86-1048.56,2201.09"/>
	<path id="Y" style="fill:#FFFFFF;" d="M-1409,2227.31l-27.73-97.31h25.33l9.44,44.16c2.41,10.9,4.17,20.15,5.32,27.84h0.28
		c0.8-5.5,2.56-14.71,5.31-27.67l9.78-44.33h23.56l-27.29,97.45V2274h-24V2227.31z"/>
	<path id="U" style="fill:#FFFFFF;" d="M-1246,2188v87h-15.83l-1.76-11h0.05c-4.15,8.01-10.37,12.01-18.64,12.01
		c-5.75,0-10-1.89-12.73-5.66c-2.73-3.77-4.09-9.65-4.09-17.66V2188h19v63.71c0,3.87,0.41,6.64,1.27,8.28
		c0.86,1.64,2.29,2.49,4.3,2.49c1.72,0,3.37-0.5,4.93-1.54c1.56-1.04,2.74-2.36,3.5-3.97V2188H-1246z"/>
	<path id="U_1_" style="fill:#FFFFFF;" d="M-1146,2188v87h-15.83l-1.76-11h0.05c-4.15,8.01-10.37,12.01-18.64,12.01
		c-5.75,0-10-1.89-12.73-5.66c-2.73-3.77-4.09-9.65-4.09-17.66V2188h19v63.71c0,3.87,0.41,6.64,1.27,8.28
		c0.86,1.64,2.29,2.49,4.3,2.49c1.72,0,3.37-0.5,4.93-1.54c1.56-1.04,2.74-2.36,3.5-3.97V2188H-1146z"/>
	<polygon id="T" style="fill:#FFFFFF;" points="-1192.97,2171 -1211,2171 -1211,2274 -1231,2274 -1231,2171 -1251,2171 -1251,2156 
		-1193,2156 -1193,2171 	"/>
	<path id="B_1_" style="fill:#FFFFFF;" d="M-1081.14,2201.53c-1.2-5.48-3.09-9.45-5.73-11.9c-2.65-2.46-6.27-3.68-10.9-3.68
		c-3.59,0-6.93,1.01-10.05,3.05c-3.12,2.02-5.51,4.69-7.21,8h-0.97v-45h-18v123h16.24l2-8h0.41c1.52,2.85,3.81,5.09,6.85,6.74
		c3.04,1.65,6.41,2.48,10.12,2.48c6.66,0,11.55-2.97,14.69-8.89c3.14-5.91,4.69-15.17,4.69-27.77v-14.89
		c0.03-9.7-0.57-17.29-1.73-22.77 M-1098.97,2237c0,6.33-0.27,11.27-0.83,14.87c-0.53,3.59-1.46,6.14-2.76,7.65
		c-1.3,1.51-3.02,2.27-5.21,2.27c-1.69,0-3.25-0.38-4.72-1.13c-1.43-0.76-2.62-1.89-3.52-3.4v-49.29c0.7-2.36,1.89-4.28,3.59-5.8
		c1.69-1.51,3.52-2.27,5.51-2.27c2.09,0,3.72,0.79,4.85,2.33c1.13,1.54,1.92,4.19,2.39,7.84c0.43,3.68,0.66,8.91,0.66,15.72V2237
		H-1098.97z"/>
</g>
<g id="lune">
	<circle id="circle2" style="fill:#EAF1F9;" cx="-433.5" cy="2166.5" r="271.5"/>
	<circle id="cratere1_2_" style="fill:#D5DBE0;" cx="-507" cy="2154" r="67"/>
	<path style="fill:#E2E5E8;" d="M-254.14,1961.7c29.13,43.21,46.14,95.27,46.14,151.3c0,149.67-121.33,271-271,271
		c-69.99,0-133.77-26.53-181.86-70.09C-612.38,2388.02-528.67,2437-433.5,2437c149.95,0,271.5-121.55,271.5-271.5
		C-162,2084.31-197.65,2011.46-254.14,1961.7z"/>
	<path id="ombrecratere1" style="fill:#BEBEBF;" d="M-570,2160c0-37,30-67,67-67c20.03,0,38,8.8,50.27,22.74
		c-12.17-16.8-31.94-27.74-54.27-27.74c-37,0-67,30-67,67c0,16.97,6.32,32.46,16.73,44.26C-565.27,2188.23-570,2174.67-570,2160z"/>
	
		<ellipse id="cratere2" transform="matrix(0.7328 -0.6804 0.6804 0.7328 -1435.4336 332.3632)" style="fill:#D5DBE0;" cx="-294.5" cy="1994" rx="31.21" ry="37.96"/>
	<path id="ombrecratere2" style="fill:#BEBEBF;" d="M-318.04,2015.19c-14.11-15.54-15.2-37.53-2.43-49.12
		c11.88-10.79,31.57-8.76,45.61,4.09c-14.11-15.49-35.86-18.67-48.61-7.09c-12.77,11.59-11.68,33.59,2.43,49.12
		c0.98,1.08,2,2.09,3.05,3.05C-318.01,2015.23-318.02,2015.21-318.04,2015.19z"/>
	<path style="fill:#BEBEBF;" d="M-218.5,2192c15.66,0,28.47,16.35,29.44,37c0.04-0.83,0.06-1.66,0.06-2.5
		c0-21.82-13.21-39.5-29.5-39.5s-29.5,17.68-29.5,39.5c0,0.84,0.03,1.67,0.06,2.5C-246.97,2208.35-234.16,2192-218.5,2192z"/>
	<ellipse style="fill:#D5DBE0;" cx="-218.5" cy="2231.5" rx="29.5" ry="39.5"/>
	<path style="fill:#A2A2A3;" d="M-189.06,2229c0.04-0.83,0.06-1.66,0.06-2.5c0-21.57-12.92-39.1-28.96-39.48
		c-0.47,1.68-0.96,3.35-1.46,5.01c0.31-0.01,0.61-0.03,0.92-0.03C-202.84,2192-190.03,2208.35-189.06,2229z"/>
	<path style="fill:#C4C9CC;" d="M-218.5,2271c16.29,0,29.5-17.68,29.5-39.5s-13.21-39.5-29.5-39.5c-0.41,0-0.82,0.02-1.22,0.04
		c-6.16,20.22-14.62,39.44-25.07,57.36C-239.92,2262.22-229.98,2271-218.5,2271z"/>
	<ellipse id="cratere3" style="fill:#D5DBE0;" cx="-497" cy="2392" rx="34" ry="19"/>
	<path id="ombrecratere3" style="fill:#BEBEBF;" d="M-500,2379.58c18.78,0,34,8.51,34,19c0,0.45-0.04,0.9-0.09,1.34
		c1.98-2.41,3.09-5.09,3.09-7.92c0-10.49-15.22-19-34-19c-17.97,0-32.67,7.79-33.91,17.66
		C-525.53,2384.12-513.72,2379.58-500,2379.58z"/>
	<path style="fill:#C3C7C9;" d="M-523.8,2380.31c-4.51,3.22-7.2,7.28-7.2,11.69c0,10.49,15.22,19,34,19s34-8.51,34-19
		c0-2.98-1.23-5.79-3.41-8.3c-4.17,0.19-8.37,0.3-12.59,0.3C-494.26,2384-509.22,2382.74-523.8,2380.31z"/>
	<g>
		<path style="fill:#9D9DA0;" d="M-476.23,2385c6.31,3.45,10.23,8.26,10.23,13.58c0,0.45-0.04,0.9-0.09,1.34
			c1.98-2.41,3.09-5.09,3.09-7.92c0-2.56-0.91-4.99-2.55-7.22c-3.47,0.13-6.95,0.22-10.45,0.22
			C-476.08,2385-476.15,2385-476.23,2385z"/>
		<path style="fill:#9D9DA0;" d="M-516.53,2381.97c-2.6-0.39-5.2-0.82-7.77-1.29c-3.75,2.82-6.13,6.25-6.6,9.97
			C-527.88,2386.98-522.82,2383.93-516.53,2381.97z"/>
	</g>
	
		<ellipse id="cratere3_1_" transform="matrix(0.9765 -0.2155 0.2155 0.9765 -431.768 -66.419)" style="fill:#D5DBE0;" cx="-520.5" cy="1947" rx="34.04" ry="19.05"/>
	<path id="ombrecratere3_1_" style="fill:#BEBEBF;" d="M-526.6,1935.51c18.34-4.04,35.03,1,37.29,11.25c0.1,0.44,0.16,0.88,0.2,1.33
		c1.42-2.78,1.93-5.64,1.32-8.4c-2.26-10.25-18.95-15.28-37.29-11.25c-17.55,3.86-30.24,14.63-29.32,24.54
		C-550.56,1945.44-540,1938.46-526.6,1935.51z"/>
</g>
<g id="anglais">
	<path id="bleu4" style="fill:#4F71C6;stroke:#FFA300;stroke-miterlimit:10;" d="M-2102.43,2135.41l-7.19-244.9
		c-132.52,16.44-239.99,124.09-253.16,253.6L-2102.43,2135.41z"/>
	<path id="bleu3" style="fill:#4F71C6;stroke:#FFA300;stroke-miterlimit:10;" d="M-2039.22,2187.83l7.24,246.4
		c128.71-21.52,229.44-121.62,245.12-254.84L-2039.22,2187.83z"/>
	<path id="bleu2" style="fill:#4F71C6;stroke:#FFA300;stroke-miterlimit:10;" d="M-2041.2,2141.36l251.89-7.42
		c-22.22-128.69-121.74-229.44-260.33-244.94L-2041.2,2141.36z"/>
	<path id="bleu1" style="fill:#4F71C6;stroke:#FFA300;stroke-miterlimit:10;" d="M-2100.42,2195.37l-254.86,8.52
		c12.14,123.66,142.95,235.35,262.88,231.34L-2100.42,2195.37z"/>
	<g id="white3">
		<path style="fill:#FCFCFC;" d="M-2357.07,2142.92l562.12-18.8c-1.47-9.79-3.48-19.41-6-28.82l-552.06,18.46
			C-2354.9,2123.33-2356.26,2133.06-2357.07,2142.92z"/>
	</g>
	<g id="white2">
		<path style="fill:#FCFCFC;" d="M-1787.9,2185.42l-566.86,18.96c1.48,9.79,3.5,19.4,6.04,28.81l556.72-18.62
			C-1790.1,2205.02-1788.72,2195.29-1787.9,2185.42z"/>
	</g>
	<g id="white1">
		<path style="fill:#FFFFFF;" d="M-2030.95,2432.61c9.79-1.49,19.4-3.46,28.82-5.89l-17.72-529.72c-9.56-1.79-19.28-3.11-29.15-3.95
			L-2030.95,2432.61z"/>
	</g>
	<g id="white4">
		<path style="fill:#FFFFFF;" d="M-2110.1,1891.1c-9.79,1.51-19.4,3.5-28.82,5.95l17.96,536.93c9.56,1.82,19.29,3.16,29.15,4.01
			L-2110.1,1891.1z"/>
	</g>
	<g id="ombrewhite">
		<path style="fill:#EFEFEF;" d="M-2049.08,2429.21c9.79-1.49,19.4-3.46,28.82-5.89l-17.72-529.72c-9.56-1.79-19.28-3.11-29.15-3.95
			L-2049.08,2429.21z"/>
	</g>
	
		<rect id="littlewhite1" x="-2120.27" y="2056.7" transform="matrix(0.7492 -0.6623 0.6623 0.7492 -1862.4915 -792.5112)" style="fill:#FFFFFF;" width="285" height="13"/>
	
		<rect id="littlewhite2" x="-2326.52" y="2245.83" transform="matrix(0.7492 -0.6623 0.6623 0.7492 -2039.84 -882.6346)" style="fill:#FFFFFF;" width="282.12" height="13"/>
	
		<rect id="littlewhite3" x="-2304.9" y="2267.5" transform="matrix(0.7492 -0.6623 0.6623 0.7492 -2048.6128 -862.4634)" style="fill:#FFFFFF;" width="283.38" height="13"/>
	
		<rect id="littlewhite4" x="-2097.13" y="2079.07" transform="matrix(0.7492 -0.6623 0.6623 0.7492 -1871.9255 -772.6882)" style="fill:#FFFFFF;" width="281.63" height="13"/>
	
		<rect id="littlewhite5" x="-2076.74" y="2254.36" transform="matrix(0.6623 0.7492 -0.7492 0.6623 1035.2318 2224.8032)" style="fill:#FFFFFF;" width="252.46" height="13"/>
	
		<rect id="littlewhite6" x="-2324.92" y="2070.55" transform="matrix(0.7303 0.6831 -0.6831 0.7303 830.2862 2050.8447)" style="fill:#FFFFFF;" width="285" height="13"/>
	
		<rect id="littlewhite7" x="-2305.6" y="2049.89" transform="matrix(0.7303 0.6831 -0.6831 0.7303 821.3854 2032.077)" style="fill:#FFFFFF;" width="285" height="13"/>
	
		<rect id="littlewhite8" x="-2099.79" y="2277.72" transform="matrix(0.6623 0.7492 -0.7492 0.6623 1043.85 2252.4138)" style="fill:#FFFFFF;" width="245.9" height="13"/>
	<path id="littlered1" style="fill:#C95050;stroke:#FFA300;stroke-miterlimit:10;" d="M-2268.48,1960.36
		c-6.56,5.62-12.84,11.53-18.81,17.7l202.68,185.54l17.8-18.63L-2268.48,1960.36z"/>
	<path id="littlered2" style="fill:#C95050;stroke:#FFA300;stroke-miterlimit:10;" d="M-2065.72,2180.78l211.41-190.57
		c-5.44-6.74-11.2-13.23-17.27-19.44l-211.56,190.7L-2065.72,2180.78z"/>
	<path id="littlered3" style="fill:#C95050;stroke:#FFA300;stroke-miterlimit:10;" d="M-2057.86,2146.84l-19.63,17.95l184.25,207.27
		c6.87-5.64,13.46-11.58,19.75-17.81L-2057.86,2146.84z"/>
	
		<linearGradient id="ombre2_2_" gradientUnits="userSpaceOnUse" x1="-2057.7043" y1="2115.072" x2="-2024.7347" y2="2141.5776" gradientTransform="matrix(0.9994 -0.0334 0.0334 0.9994 -51.403 10.629)">
		<stop  offset="0" style="stop-color:#A04040"/>
		<stop  offset="0.2396" style="stop-color:#A94343"/>
		<stop  offset="0.6263" style="stop-color:#C14D4D"/>
		<stop  offset="0.741" style="stop-color:#C95050"/>
	</linearGradient>
	<polygon id="ombre2_1_" style="fill:url(#ombre2_2_);" points="-2024.05,2222.76 -2048.56,2195.03 -2030.35,2178.94 
		-2005.84,2206.66 	"/>
	<path id="littlered4" style="fill:#C95050;stroke:#FFA300;stroke-miterlimit:10;" d="M-2075.24,2153.94l-213.73,192.57
		c6.17,6.33,12.64,12.37,19.4,18.12l212.04-191.04L-2075.24,2153.94z"/>
	
		<linearGradient id="ombre1_2_" gradientUnits="userSpaceOnUse" x1="-1561.2018" y1="1609.3595" x2="-1541.7842" y2="1597.1437" gradientTransform="matrix(1.2993 -0.2993 -0.4564 1.2528 720.4222 -345.4873)">
		<stop  offset="0" style="stop-color:#A04040"/>
		<stop  offset="0.3234" style="stop-color:#A94343"/>
		<stop  offset="0.8451" style="stop-color:#C14D4D"/>
		<stop  offset="1" style="stop-color:#C95050"/>
	</linearGradient>
	<polygon id="ombre1_1_" style="fill:url(#ombre1_2_);" points="-2029.29,2145.65 -2044.79,2128.12 -2017.48,2103.98 
		-2001.98,2121.51 	"/>
	<path id="littlered5" style="fill:#C95050;stroke:#F2B214;stroke-miterlimit:10;" d="M-1792.16,2154.55
		c-0.34-10.14-1.27-20.12-2.72-29.93l-562.23,18.8c-0.79,9.89-1.06,19.91-0.72,30.04c0.35,10.48,1.33,20.79,2.88,30.92l562-18.8
		C-1792.1,2175.38-1791.8,2165.03-1792.16,2154.55z"/>
	<path id="littlered6" style="fill:#C95050;stroke:#FFA300;stroke-miterlimit:10;" d="M-2058.87,2435.62
		c9.45-0.32,18.77-1.11,27.94-2.36l-17.59-540.79c-9.23-0.63-19.09-0.86-28.53-0.55c-11.17,0.37-22.15,1.43-32.91,3.1l18.05,539.7
		C-2081.06,2435.67-2070.03,2435.99-2058.87,2435.62z"/>
	
		<linearGradient id="ombre3_1_" gradientUnits="userSpaceOnUse" x1="-2059.9011" y1="2085.2854" x2="-2015.9011" y2="2085.2854" gradientTransform="matrix(0.9994 -0.0334 0.0334 0.9994 -51.403 10.629)">
		<stop  offset="0" style="stop-color:#A04040"/>
		<stop  offset="1" style="stop-color:#C95050"/>
	</linearGradient>
	<polygon id="ombre3" style="fill:url(#ombre3_1_);" points="-1995.48,2191.86 -2039.46,2193.34 -2041.45,2133.87 -1997.47,2132.4 	
		"/>
	<g id="circle_2_">
		<path style="fill:#FFFFFF;" d="M-2074.07,1892c151.74,0,277.01,115.64,281.92,262.54c5.02,150.13-117.54,276.07-273.76,281.29
			c-3.36,0.11-6.69,0.17-10.02,0.17c-151.74,0-277.01-115.64-281.92-262.54c-5.02-150.13,117.54-276.07,273.76-281.29
			C-2080.74,1892.06-2077.4,1892-2074.07,1892 M-2074.07,1879c-3.47,0-6.98,0.06-10.45,0.17c-39.87,1.33-78.31,10.14-114.24,26.16
			c-34.74,15.49-65.68,37.05-91.98,64.07c-26.33,27.06-46.68,58.23-60.48,92.66c-14.3,35.69-20.9,73.31-19.61,111.82
			c2.49,74.42,34.47,143.83,90.05,195.45c26.98,25.05,58.17,44.7,92.71,58.38c35.64,14.12,73.38,21.28,112.16,21.28
			c3.47,0,6.98-0.06,10.45-0.18c39.87-1.33,78.31-10.14,114.24-26.16c34.74-15.49,65.68-37.05,91.98-64.07
			c26.33-27.06,46.68-58.23,60.48-92.66c14.3-35.69,20.9-73.31,19.61-111.82c-2.49-74.42-34.47-143.83-90.05-195.45
			c-26.98-25.05-58.17-44.7-92.71-58.38C-1997.55,1886.16-2035.29,1879-2074.07,1879L-2074.07,1879z"/>
	</g>
</g>
<g id="tout">
	
		<radialGradient id="flare_4_" cx="-2182.0059" cy="308.8024" r="311.2784" fx="-2190.3271" fy="309.4468" gradientUnits="userSpaceOnUse">
		<stop  offset="0.0492" style="stop-color:#DDFF10;stop-opacity:0.7"/>
		<stop  offset="0.1999" style="stop-color:#E5FD0C;stop-opacity:0.6282"/>
		<stop  offset="0.4348" style="stop-color:#FBF902;stop-opacity:0.5163"/>
		<stop  offset="0.469" style="stop-color:#FFF800;stop-opacity:0.5"/>
		<stop  offset="0.6623" style="stop-color:#FBCA05;stop-opacity:0.2906"/>
		<stop  offset="0.746" style="stop-color:#F9B408;stop-opacity:0.2"/>
		<stop  offset="0.7491" style="stop-color:#F9B408;stop-opacity:0.1975"/>
		<stop  offset="0.9972" style="stop-color:#F9B408;stop-opacity:0"/>
	</radialGradient>
	<path id="flare_3_" style="fill:url(#flare_4_);" d="M-1909.53,308.8c0-150.48-121.99-272.47-272.47-272.47
		c-78.21,0-136.1,35.5-152,46.3c-14.49,9.84-46.03,33.05-73.21,73.42c-35.95,53.39-47.69,111.95-47.26,152.75
		c1.23,117,104.5,272.47,272.47,272.47C-2031.52,581.27-1909.53,459.28-1909.53,308.8z"/>
	<g id="sun_1_">
		<path style="fill:#FF931E;" d="M-1997.01,309.75c0-103.55-83.95-187.5-187.5-187.5c-53.82,0-93.66,24.43-104.6,31.86
			c-9.97,6.77-31.68,22.75-50.38,50.52c-24.74,36.74-32.82,77.04-32.53,105.12c0.84,80.51,71.91,187.5,187.5,187.5
			C-2080.96,497.25-1997.01,413.3-1997.01,309.75z"/>
		<linearGradient id="SVGID_1_" gradientUnits="userSpaceOnUse" x1="-2378.5261" y1="310.4987" x2="-1990.5144" y2="310.4987">
			<stop  offset="0.0492" style="stop-color:#564430;stop-opacity:0.7"/>
			<stop  offset="0.2056" style="stop-color:#4F3D2F;stop-opacity:0.6255"/>
			<stop  offset="0.469" style="stop-color:#4C3A2E;stop-opacity:0.5"/>
			<stop  offset="0.7526" style="stop-color:#3F2F25;stop-opacity:0.2"/>
			<stop  offset="0.9972" style="stop-color:#3D2718;stop-opacity:0"/>
		</linearGradient>
		<path style="fill:url(#SVGID_1_);" d="M-1997.66,309.75c0.02-24.41-5.11-48.82-15.08-70.97c-0.57-1.41-1.27-2.75-1.93-4.12
			l-1.99-4.09c-0.63-1.38-1.41-2.68-2.13-4.01l-2.19-3.98c-0.71-1.34-1.56-2.59-2.35-3.88l-2.4-3.85c-1.63-2.55-3.42-4.99-5.11-7.48
			c-7.04-9.8-15.06-18.84-23.8-27.04c-17.47-16.43-37.93-29.34-59.88-38.33c-21.97-8.97-45.56-13.86-69.36-14.31
			c-11.88-0.24-23.8,0.66-35.57,2.7c-1.48,0.2-2.94,0.52-4.41,0.82l-4.4,0.9c-2.93,0.63-5.81,1.43-8.73,2.13
			c-2.87,0.85-5.77,1.65-8.63,2.57c-2.84,0.98-5.72,1.86-8.51,2.97c-5.66,2.05-11.18,4.48-16.6,7.1c-5.42,2.63-10.72,5.53-15.8,8.73
			c-10.19,6.46-19.7,14.06-28.35,22.53c-17.39,16.89-30.99,37.58-40.12,59.99c-1.21,2.78-2.16,5.65-3.23,8.48
			c-0.53,1.42-0.96,2.87-1.44,4.3c-0.45,1.44-0.97,2.86-1.37,4.32c-0.81,2.92-1.68,5.81-2.34,8.76c-0.34,1.47-0.73,2.93-1.04,4.41
			l-0.9,4.44c-0.32,1.47-0.55,2.97-0.8,4.45c-0.23,1.49-0.53,2.97-0.71,4.47l-0.57,4.48c-0.19,1.49-0.29,3-0.44,4.49
			c-0.51,5.99-0.79,12-0.6,17.97c0.31,11.94,2.28,23.81,5.29,35.36c0.39,1.44,0.73,2.9,1.16,4.33l1.33,4.28
			c0.82,2.87,1.9,5.66,2.89,8.48c2.02,5.62,4.34,11.13,6.84,16.55c10.09,21.64,23.73,41.62,40.37,58.58
			c16.63,16.94,36.33,30.81,57.99,40.06c21.66,9.26,45.11,13.9,68.7,13.96c23.61,0.08,47.19-4.49,69.16-13.28
			c2.74-1.12,5.44-2.32,8.17-3.47c2.69-1.23,5.33-2.58,8-3.86c2.64-1.36,5.23-2.8,7.85-4.2c2.57-1.49,5.09-3.06,7.64-4.58
			c10.02-6.39,19.57-13.64,28.29-21.84c8.75-8.17,16.77-17.2,23.82-26.99c1.69-2.49,3.48-4.93,5.11-7.47l2.4-3.84
			c0.78-1.29,1.64-2.54,2.35-3.88l2.19-3.97c0.72-1.33,1.5-2.64,2.13-4.01l1.99-4.08c0.66-1.37,1.36-2.71,1.93-4.12
			C-2002.87,358.55-1997.71,334.16-1997.66,309.75z M-1996.36,309.75c0.02,24.58-4.42,49.16-13.2,72.29
			c-0.49,1.47-1.13,2.88-1.72,4.31l-1.79,4.28c-0.57,1.44-1.28,2.82-1.93,4.22l-1.99,4.2c-0.63,1.42-1.41,2.76-2.12,4.14l-2.18,4.12
			c-1.48,2.73-3.14,5.36-4.7,8.05c-6.55,10.58-14.11,20.6-22.64,29.78c-8.55,9.16-17.99,17.57-28.3,24.83
			c-2.61,1.76-5.2,3.56-7.85,5.29c-2.7,1.63-5.37,3.32-8.11,4.9c-2.79,1.48-5.55,3.02-8.38,4.44c-2.86,1.34-5.69,2.76-8.6,4.02
			c-23.22,10.09-48.59,15.4-73.97,15.55c-12.7,0.03-25.43-1.17-37.91-3.73c-12.47-2.57-24.68-6.46-36.29-11.66
			c-11.62-5.18-22.67-11.57-32.95-18.97c-10.28-7.41-19.79-15.83-28.45-25.01c-17.31-18.36-31.28-39.74-41.05-62.86
			c-2.41-5.79-4.63-11.67-6.53-17.65c-0.91-3-1.88-5.98-2.61-9.04l-1.17-4.55c-0.38-1.52-0.66-3.07-1-4.6
			c-2.57-12.27-4.04-24.81-3.77-37.38c0.09-6.28,0.67-12.51,1.48-18.69c0.8-6.18,1.99-12.29,3.36-18.35l1.09-4.53
			c0.38-1.51,0.82-2.99,1.23-4.49c0.79-3,1.8-5.94,2.72-8.9c0.45-1.48,1.01-2.93,1.51-4.4c0.53-1.46,1-2.93,1.58-4.37
			c1.17-2.87,2.21-5.79,3.51-8.6c4.98-11.33,10.81-22.3,17.74-32.56c3.5-5.1,7.17-10.09,11.07-14.89c3.95-4.76,8.06-9.39,12.41-13.8
			c8.68-8.82,18.16-16.89,28.36-24c5.12-3.57,10.44-6.81,15.9-9.79c5.48-2.94,11.03-5.79,16.76-8.24
			c22.79-10.09,47.73-15.86,72.98-16.29c25.19-0.39,50.55,4.6,73.77,14.52c23.25,9.88,44.24,24.8,61.31,43.12
			c8.54,9.16,16.12,19.15,22.66,29.73c1.57,2.69,3.22,5.32,4.71,8.04l2.18,4.11c0.71,1.38,1.49,2.72,2.12,4.14l1.99,4.2
			c0.65,1.4,1.37,2.78,1.93,4.22l1.79,4.28c0.59,1.43,1.23,2.84,1.72,4.3C-2000.88,260.61-1996.41,285.17-1996.36,309.75z"/>
	</g>
	<g id="contour12_1_">
		<path style="fill:#E57F23;" d="M-2179.39,121.58c-37.91,0-69.14,14.21-87.5,23.82c93.22,8.98,166.11,87.58,166.11,182.53
			c0,69.56-39.12,130.05-96.69,160.95c5.8,0.57,11.71,0.88,17.72,0.88c101.65,0,184.06-81.86,184.06-182.83
			S-2077.73,121.58-2179.39,121.58z"/>
	</g>
	<path id="contour11_1_" style="fill:#FFAF22;" d="M-2156.57,209.01c-10.19,6.11-15.91,20.25-12.67,32.31
		c3.75,13.95,18.66,22.03,30.41,22.8c15.44,1.02,24.39-10.64,34.84-5.07c5.93,3.16,6.15,8.57,12.04,9.5
		c6.08,0.96,13.31-3.64,15.84-9.5c3.88-9.02-4.03-19.54-8.87-25.97c-19.02-25.28-49.82-27.09-53.21-27.24
		C-2144.57,205.57-2150.54,205.4-2156.57,209.01z"/>
	<path id="contour10_1_" style="fill:#EF8D22;" d="M-2138.2,205.85c-3.37-0.14-6.62-0.25-9.82,0.2
		c13.78,15.36,25.08,32.99,33.24,52.22c3.64-0.99,7.12-1.16,10.79,0.79c5.93,3.16,6.15,8.57,12.04,9.5
		c6.08,0.96,13.31-3.64,15.84-9.5c3.88-9.02-4.03-19.54-8.87-25.97C-2104,207.81-2134.81,205.99-2138.2,205.85z"/>
	<path id="contour9_1_" style="fill:#FFCC33;" d="M-2185.63,397.62c1.92-23.37,42.73-41.46,76.02-36.41
		c4.74,0.72,40.4,6.13,49.94,34.29c9.11,26.86-10.55,59.67-24.89,59.92c-11.65,0.2-12.1-21.24-31.85-28.16
		c-19.42-6.8-31.53,9.54-49.14,1.66C-2177.42,423.6-2186.62,409.6-2185.63,397.62z"/>
	<path id="contour8_1_" style="fill:#F2A325;" d="M-2059.67,395.5c-8.25-24.33-36-31.68-46.44-33.69
		c-0.59,3.47-1.28,6.94-2.08,10.41c-4.48,19.39-11.86,37.35-21.57,53.53c4.13-0.45,8.51-0.19,13.35,1.5
		c19.75,6.92,20.2,28.36,31.85,28.16C-2070.22,455.16-2050.56,422.36-2059.67,395.5z"/>
	<path id="contour7_1_" style="fill:#F2A325;" d="M-2095.2,154.55c-7.43,3.65-9.5,18.73-3.8,28.51c7.9,13.55,30.1,15.82,35.47,8.87
		c4.84-6.26-4-19.92-5.07-21.54C-2074.35,161.67-2086.95,150.51-2095.2,154.55z"/>
	<path id="contour6_1_" style="fill:#FFCC33;" d="M-2256.73,149.49c-0.92,1.51-10.56,17.28-3.8,22.64c7.05,5.59,24.6-5.93,33.57,0
		c7.91,5.23-0.74,17.49,6.97,22.14c7.07,4.27,24.32-0.01,27.87-7.55c3.43-7.28-8.8-11.55-12.04-27.17
		c-2.65-12.78,3.99-17.37-1.27-22.64c-7.17-7.19-27.62-6.72-39.91,0.5C-2251.61,141.1-2254.48,145.81-2256.73,149.49z"/>
	<path id="contour5_1_" style="fill:#EF8D22;" d="M-2201.74,166.81c-0.99-2.12-1.84-4.51-2.41-7.26
		c-2.65-12.78,3.99-17.37-1.27-22.64c-7.17-7.19-27.62-6.72-39.91,0.5c-5.35,3.14-8.23,7.02-10.35,10.38
		C-2236.55,151.29-2218.4,157.8-2201.74,166.81z"/>
	<path id="contour4_1_" style="fill:#F2A325;" d="M-2020.42,270.85c-6.45,7.85-9.68,11.77-9.73,14.92
		c-0.12,7.83,8.21,15.46,12.33,14.27c3.3-0.96,3.29-7.45,6.49-7.78c2.7-0.28,3.95,4.21,5.84,3.89c3.52-0.58,7.29-17.59-0.65-25.95
		c-0.7-0.73-4.33-4.56-8.43-3.89C-2016.76,266.66-2018.19,268.14-2020.42,270.85z"/>
	<path id="contour3_1_" style="fill:#FFCC33;" d="M-2341.93,244.19c7.23,7.52,23.03,2.71,31.67-2.53
		c14.53-8.81,26.36-29.46,19-42.44c-6.06-10.7-24.16-14.43-28.51-9.5c-2.83,3.21,2.27,7.73,0,14.57
		c-3.49,10.5-18.36,8.36-24.07,19.64C-2347.09,230.35-2346.49,239.44-2341.93,244.19z"/>
	<g id="contour2_1_" style="opacity:0.66;">
		<path style="fill:none;" d="M-2176.34,120.5c-53.77-2.16-94.57,20.65-105.79,27.63c-10.24,6.37-32.56,21.45-52.37,48.46
			c-26.2,35.72-35.89,75.66-36.73,103.72c-0.87,29.12,7.32,62.07,23.58,92.49c0.32-1.76,0.8-3.52,1.44-5.26
			c6.39-17.3,27.42-28.21,46.67-25.38c18.12,2.66,35.88,17.67,34.91,30.57c-1.08,14.43-25.25,21.58-22.79,30.78
			c1.72,6.45,14.43,6.11,14.78,10.74c0.4,5.23-15.2,13.96-29.68,12.75c-1.5-0.13-3.03-0.36-4.56-0.7
			c29.48,27.68,68.43,47.01,115.46,48.91c103.47,4.16,190.73-76.34,194.89-179.81C-1992.37,211.92-2072.87,124.66-2176.34,120.5z"/>
		<path style="fill:#FFCC33;" d="M-2272.02,434.24c-0.35-4.63-13.06-4.29-14.78-10.74c-2.45-9.2,21.71-16.35,22.79-30.78
			c0.97-12.9-16.78-27.91-34.91-30.57c-19.25-2.82-40.27,8.09-46.67,25.38c-0.64,1.74,1.56,2.21,1.24,3.97
			c10.38,19.42,24.41,36.12,41.13,51.82c1.53,0.34,2.32,3.04,3.82,3.16C-2284.92,447.7-2271.62,439.47-2272.02,434.24z"/>
	</g>
	<path id="contour1_1_" style="fill:#FFCC33;" d="M-2295.37,289.48c5.18-16.9,24.23-30.85,44.98-27.87
		c18.59,2.67,32.2,18.01,34.84,34.84c3.71,23.69-14.9,46.71-35.47,48.78C-2277.37,347.87-2303.45,315.83-2295.37,289.48z"/>
	
		<radialGradient id="flare_5_" cx="-2182.0059" cy="308.8024" r="311.2784" fx="-2190.3271" fy="309.4468" gradientUnits="userSpaceOnUse">
		<stop  offset="0.0492" style="stop-color:#DDFF10;stop-opacity:0.7"/>
		<stop  offset="0.1999" style="stop-color:#E5FD0C;stop-opacity:0.6282"/>
		<stop  offset="0.4348" style="stop-color:#FBF902;stop-opacity:0.5163"/>
		<stop  offset="0.469" style="stop-color:#FFF800;stop-opacity:0.5"/>
		<stop  offset="0.6623" style="stop-color:#FBCA05;stop-opacity:0.2906"/>
		<stop  offset="0.746" style="stop-color:#F9B408;stop-opacity:0.2"/>
		<stop  offset="0.7491" style="stop-color:#F9B408;stop-opacity:0.1975"/>
		<stop  offset="0.9972" style="stop-color:#F9B408;stop-opacity:0"/>
	</radialGradient>
	<path id="flare_2_" style="opacity:0.66;fill:url(#flare_5_);" d="M-1909.53,308.8c0-150.48-121.99-272.47-272.47-272.47
		c-78.21,0-136.1,35.5-152,46.3c-14.49,9.84-46.03,33.05-73.21,73.42c-35.95,53.39-47.69,111.95-47.26,152.75
		c1.23,117,104.5,272.47,272.47,272.47C-2031.52,581.27-1909.53,459.28-1909.53,308.8z"/>
</g>
<g id="star1">
	<radialGradient id="flare2_1_" cx="-1566.4601" cy="296.7563" r="360.3669" gradientUnits="userSpaceOnUse">
		<stop  offset="0.0492" style="stop-color:#DDFF10;stop-opacity:0.7"/>
		<stop  offset="0.1166" style="stop-color:#E5FD0C;stop-opacity:0.6282"/>
		<stop  offset="0.2218" style="stop-color:#FBF902;stop-opacity:0.5163"/>
		<stop  offset="0.2371" style="stop-color:#FFF800;stop-opacity:0.5"/>
		<stop  offset="0.2874" style="stop-color:#FBCA05;stop-opacity:0.1511"/>
		<stop  offset="0.3092" style="stop-color:#F9B408;stop-opacity:0"/>
		<stop  offset="0.3148" style="stop-color:#F9B408;stop-opacity:0"/>
		<stop  offset="0.7542" style="stop-color:#F9B408;stop-opacity:0"/>
	</radialGradient>
	<path id="flare2" style="fill:url(#flare2_1_);" d="M-1308.14,297.58c-45.8,5.75-91.52,12.19-136.57,22.36
		c-33.15,7.49-63.11,28.76-82.38,57.13c-22.76,33.51-27.54,75.5-32.2,114.75c-2.97,25-8.03,50.48-8.08,75.73c0,0.71,0,1.41-0.2,2.07
		c0.3-1.02-1.38-4.32-1.68-5.43c-0.54-1.98-0.99-3.99-1.44-5.99c-0.91-4.05-1.41-8.19-1.96-12.3c-0.82-6.12-1.5-12.26-2.03-18.41
		c-0.48-5.55-1.71-11.46-1.71-17.01c0-48.86-10.57-112.7-43.74-150.5c-29.95-34.14-74.91-43.48-117.57-51
		c-27.66-4.87-57.08-12.26-85.29-12.31c-18.48-0.03,110.92-13.74,150.55-30.4c39.63-16.66,60.79-36.13,71.4-63.99
		c10.61-27.86,21.24-66.87,21.27-80.81s16.02-97.55,13.38-97.55c-2.64,0,7.76,86.44,13,111.54s15.72,69.73,28.89,86.48
		c13.17,16.75,36.9,36.31,60.64,44.72c27.9,9.88,56.78,16.97,86.03,21.47c13.63,2.1,27.37,3.11,41,5.11
		C-1328.42,294.44-1316.62,298.65-1308.14,297.58z"/>
	<radialGradient id="flare_6_" cx="-1569.9698" cy="297.1315" r="210.5799" gradientUnits="userSpaceOnUse">
		<stop  offset="0.0492" style="stop-color:#FFFFFF"/>
		<stop  offset="0.9628" style="stop-color:#FFFFFF;stop-opacity:0.6"/>
	</radialGradient>
	<path id="flare_1_" style="fill:url(#flare_6_);" d="M-1365.23,297.79c-36.3,4.56-72.53,9.66-108.24,17.72
		c-26.28,5.93-50.02,22.79-65.29,45.28c-18.04,26.56-21.83,59.84-25.52,90.94c-2.35,19.81-6.36,40.01-6.4,60.02
		c0,0.56,0,1.12-0.16,1.64c0.24-0.81-1.09-3.42-1.33-4.3c-0.43-1.57-0.79-3.16-1.14-4.75c-0.72-3.21-1.12-6.49-1.56-9.75
		c-0.65-4.85-1.19-9.72-1.61-14.59c-0.38-4.4-1.35-9.09-1.35-13.48c0-38.72-8.38-89.32-34.66-119.29
		c-23.74-27.06-59.37-34.46-93.18-40.42c-21.92-3.86-45.24-9.72-67.6-9.76c-14.65-0.03,87.91-10.89,119.32-24.09
		c31.41-13.2,48.18-28.64,56.59-50.72s16.84-53,16.86-64.05c0.02-11.05,12.7-77.32,10.6-77.32c-2.09,0,6.15,68.51,10.3,88.41
		c4.15,19.89,12.46,55.26,22.89,68.54c10.44,13.28,29.24,28.78,48.06,35.44c22.11,7.83,45,13.45,68.18,17.02
		c10.8,1.66,21.69,2.47,32.5,4.05C-1381.3,295.29-1371.95,298.63-1365.23,297.79z"/>
</g>
<g id="star2">
	<radialGradient id="circle_6_" cx="-2193.5" cy="1545.5" r="207.5" gradientUnits="userSpaceOnUse">
		<stop  offset="0.249" style="stop-color:#FFDA40"/>
		<stop  offset="0.5561" style="stop-color:#FBC14D"/>
		<stop  offset="0.9041" style="stop-color:#F7A859"/>
	</radialGradient>
	<circle id="circle_5_" style="fill:url(#circle_6_);" cx="-2193.5" cy="1545.5" r="207.5"/>
</g>
<g id="instagram">
	<path style="fill:#9E4343;stroke:#5B4B39;stroke-width:28;stroke-miterlimit:10;" d="M1103.6,527H732.4
		c-35.57,0-64.4-28.83-64.4-64.4V101.4c0-35.57,28.83-64.4,64.4-64.4h371.19c35.57,0,64.4,28.83,64.4,64.4V462.6
		C1168,498.17,1139.17,527,1103.6,527z"/>
	<path id="cratere1_x5F_layer2_1_" style="fill:#561D1D;" d="M1071.11,173.73c0-20.22-10.41-36.61-30.62-36.61
		s-23.19,16.39-23.19,36.61s2.97,36.61,23.19,36.61S1071.11,193.95,1071.11,173.73z"/>
	<path id="cratere1_x5F_layer1_1_" style="fill:#702525;" d="M1040.49,137.12c-1.62,0-3.12,0.12-4.52,0.32
		c17.15,2.34,25.96,17.69,25.96,36.29c0,18.6-8.81,33.95-25.96,36.29c1.41,0.2,2.9,0.32,4.52,0.32c20.22,0,30.62-16.39,30.62-36.61
		C1071.11,153.51,1060.7,137.12,1040.49,137.12z"/>
	<path id="cratere2_x5F_layer1_1_" style="fill:#561D1D;" d="M771.93,245.63c20.22,0.03,40.27-10.67,36.66-30.56
		c-3.57-19.7-16.35-23.22-36.57-23.25c-20.22-0.03-36.65,3.6-36.65,23.13C735.37,234.64,751.71,245.59,771.93,245.63z"/>
	<path id="cratere2_x5F_layer2_2_" style="fill:#702525;" d="M808.59,218.41c0-1.62-0.11-3.12-0.31-4.53
		c-2.37,17.14-17.73,25.93-36.33,25.9c-18.6-0.03-33.93-8.87-36.25-26.02c-0.21,1.41-0.33,2.9-0.33,4.52
		c-0.03,20.22,16.34,30.65,36.56,30.68C792.15,249.01,808.56,238.63,808.59,218.41z"/>
	<path id="cratere3_x5F_layer1_1_" style="fill:#561D1D;" d="M921.14,410.24c-29.6,0.1-58.87,15.91-53.45,45.01
		c5.37,28.81,24.11,33.88,53.71,33.78c29.6-0.1,53.63-5.54,53.49-34.13C974.74,426.06,950.74,410.14,921.14,410.24z"/>
	<path id="cratere3_x5F_layer2_1_" style="fill:#702525;" d="M867.67,450.35c0.01,2.37,0.19,4.57,0.49,6.62
		c3.35-25.12,25.77-38.09,53-38.18c27.23-0.09,49.74,12.74,53.25,37.83c0.29-2.06,0.46-4.25,0.45-6.63
		c-0.1-29.6-24.15-44.76-53.75-44.66C891.51,405.44,867.57,420.75,867.67,450.35z"/>
	<path id="stroke" style="fill:#F7E2E2;" d="M757.91,522h323.18c44.68,0,80.91-36.22,80.91-80.91V117.91
		c0-44.68-36.22-80.91-80.91-80.91H757.91C713.22,37,677,73.22,677,117.91v323.18C677,485.78,713.22,522,757.91,522z M1081.55,482
		H757.45c-22.34,0-40.45-18.11-40.45-40.45V300h101.25c0.71,0,1.32-0.35,2.03-0.4c11.13,54.73,64.57,90.08,119.37,78.97
		c39.85-8.08,70.99-39.18,79.08-78.97c0.71,0,1.32,0.4,2.03,0.4H1122v141.55C1122,463.89,1103.89,482,1081.55,482z M858.49,279.69
		c0-33.51,27.17-60.68,60.68-60.68s60.68,27.17,60.68,60.68s-27.17,60.68-60.68,60.68S858.49,313.2,858.49,279.69z M757.45,77
		h324.09c22.34,0,40.45,18.11,40.45,40.45V259h-101.25c-0.71,0-1.32,0.35-2.03,0.4c-11.13-54.73-64.57-90.08-119.37-78.97
		c-39.85,8.08-70.99,39.18-79.08,78.97c-0.71,0-1.32-0.4-2.02-0.4H717V117.45C717,95.11,735.11,77,757.45,77z"/>
	<circle id="dot" style="fill:#FFFFFF;" cx="782.34" cy="162.66" r="19.8"/>
</g>
<g id="twitter">
	<circle style="fill:#EAEAEA;" cx="-949" cy="289" r="252"/>
	<path id="contou" style="fill:#5B4B39;" d="M-670.91,291.56c0-153.02-124.05-277.06-277.06-277.06
		c-153.02,0-277.06,124.05-277.06,277.06c0,153.01,124.05,277.06,277.06,277.06C-794.96,568.62-670.91,444.57-670.91,291.56z
		 M-1199.85,291.56c0-139.11,112.76-251.88,251.88-251.88S-696.1,152.45-696.1,291.56s-112.76,251.88-251.88,251.88
		S-1199.85,430.67-1199.85,291.56z"/>
	<ellipse id="cratere1_1_" style="fill:#C8CCCE;" cx="-986.5" cy="110.5" rx="45.5" ry="38.5"/>
	<path id="ombrecratere1_1_" style="fill:#A5A5A5;" d="M-1029.04,114.03c0-21.13,20.44-38.26,45.66-38.26
		c13.65,0,25.9,5.03,34.26,12.98c-8.3-9.59-21.77-15.84-36.99-15.84c-25.22,0-45.66,17.13-45.66,38.26c0,9.69,4.31,18.53,11.4,25.27
		C-1025.82,130.15-1029.04,122.4-1029.04,114.03z"/>
	<ellipse id="cratere1_4_" style="fill:#D5DBE0;" cx="-1065" cy="291.5" rx="72" ry="64.5"/>
	<path id="ombrecratere1_3_" style="fill:#BEBEBF;" d="M-1133.28,297.31c0-35.49,32.31-64.25,72.17-64.25
		c21.58,0,40.93,8.44,54.16,21.8c-13.11-16.11-34.41-26.6-58.47-26.6c-39.86,0-72.17,28.77-72.17,64.25
		c0,16.28,6.81,31.13,18.02,42.45C-1128.19,324.38-1133.28,311.38-1133.28,297.31z"/>
	<ellipse id="cratere1_3_" style="fill:#C6CACC;" cx="-975.5" cy="507" rx="45.5" ry="29"/>
	<path id="ombrecratere1_2_" style="fill:#A5A5A5;" d="M-1018.35,509.69c0-15.91,20.44-28.8,45.66-28.8
		c13.65,0,25.9,3.78,34.26,9.77c-8.3-7.22-21.77-11.92-36.99-11.92c-25.22,0-45.66,12.89-45.66,28.8c0,7.3,4.31,13.95,11.4,19.03
		C-1015.13,521.83-1018.35,516-1018.35,509.69z"/>
	
		<ellipse id="cratere2_1_" transform="matrix(0.978 -0.2085 0.2085 0.978 -91.1828 -147.2082)" style="fill:#C4CACE;" cx="-744" cy="359" rx="22.27" ry="35.47"/>
	<path id="ombrecratere2_1_" style="fill:#BEBEBF;" d="M-759.89,379.98c-9.43-15.54-10.16-37.53-1.63-49.12
		c7.94-10.79,21.1-8.76,30.49,4.09c-9.43-15.49-23.98-18.67-32.5-7.09c-8.53,11.59-7.81,33.59,1.63,49.12
		c0.66,1.08,1.34,2.09,2.04,3.05C-759.87,380.02-759.88,380-759.89,379.98z"/>
	
		<ellipse id="cratere2_2_" transform="matrix(0.9909 -0.1343 0.1343 0.9909 -35.3052 -98.2246)" style="fill:#C4CACE;" cx="-745.5" cy="212.5" rx="18.03" ry="35.74"/>
	<path id="ombrecratere2_2_" style="fill:#BEBEBF;" d="M-757.66,233.61c-7.55-15.74-8.13-38.03-1.3-49.78
		c6.35-10.93,16.88-8.88,24.39,4.14c-7.55-15.7-19.18-18.92-26-7.18c-6.83,11.75-6.24,34.03,1.3,49.78
		c0.52,1.09,1.07,2.12,1.63,3.09C-757.65,233.65-757.66,233.63-757.66,233.61z"/>
	<path id="oiseau" d="M-828.99,236.47c0-2.8-0.05-5.57-0.18-8.31c11.96-8.92,22.34-20.07,30.55-32.84
		c-10.98,4.94-22.77,8.24-35.16,9.62c12.64-7.78,22.34-20.23,26.93-35.16c-11.84,7.18-24.94,12.32-38.86,14.99
		c-11.16-12.7-27.08-20.78-44.68-21.08c-33.8-0.55-61.21,28.01-61.21,63.8c0,5.09,0.53,10.02,1.59,14.78
		c-50.9-3.27-96.01-29.77-126.19-69.72c-5.26,9.57-8.29,20.75-8.29,32.74c0,22.67,10.81,42.82,27.23,54.71
		c-10.05-0.45-19.47-3.5-27.73-8.49c0,0.28,0,0.55,0,0.83c0,31.69,21.11,58.23,49.12,64.43c-5.14,1.46-10.55,2.22-16.12,2.19
		c-3.95-0.03-7.78-0.45-11.51-1.26c7.78,25.97,30.4,44.93,57.18,45.56c-20.96,17.38-47.35,27.76-76.02,27.68
		c-4.94,0-9.82-0.33-14.61-0.93c27.1,18.59,59.27,29.42,93.85,29.42C-890.55,419.46-828.99,321.48-828.99,236.47z"/>
</g>
<g id="facebook">
	<circle id="contour" style="fill:#08447A;" cx="-309.4" cy="294.64" r="251.13"/>
	<path id="america_2_" style="fill:#C6DB7B;" d="M-361.87,97.29c-12.46-4.85-21.09-6.54-52.33,2.15
		c-19.91,5.54-40.34,13.84-65.61,33.65c-31.1,24.38-68.53,62.21-60.91,77.7c0.97,1.97,7.08,13.49,10.26,20.27
		c2.21,4.72,4.87,10.49,6.37,18.33c1.37,7.19,2.46,12.94,0.11,19.23c-1.78,4.77-3.18,3.54-8.01,11.9
		c-3.79,6.56-3.36,8.07-7.39,14.64c-3.82,6.22-4.84,5.91-6.15,9.29c-2.14,5.51-1.04,10.51,0.67,17.78
		c2.38,10.17,6.14,17.51,9.35,23.67c3.23,6.2,5.33,10.24,9.24,15.28c4.07,5.25,6.48,6.92,8.91,11.81c2.48,5.02,3.08,9.58,3.38,13
		c1.44,16.62-2.21,29.87-1.82,39.35c1.15,27.88,38.47,51.14,46.11,46.33c2.38-1.5,0.94-5.12,5.93-15.22
		c1.53-3.1,1.56-2.55,5.13-8.85c4.79-8.45,5.24-10.33,8.97-16.53c3.23-5.37,4.85-8.06,6.15-9.29c7.44-7.04,15.12-3.37,22.78-8.65
		c6.33-4.35,17.84-16.85,23.13-26.87c10.41-19.73,11.06-20.75,10.56-29.27c-0.59-10.07-9.74-6.55-28.35-26.9
		c-11.01-12.04-21.55-31.11-24.12-37.77c-5.05-13.08-12.37-12.77-20.69-20.57c-8.32-7.8-13.31-4.19-17.93-10.32
		c-9.26-12.29,1.58-34.67,10.68-53.42c9.4-19.39,16.73-24.26,19.35-25.84c10.25-6.19,21.49-7.49,21.49-7.49
		c6.14-0.71,8.99,0.15,15-1.67c7.73-2.33,7.53-5.11,13.76-7.16c11.33-3.73,16.46,3.97,25.38-0.13c5.68-2.61,5.02-6.39,12.24-11.92
		c7.83-6,11.91-3.44,17.26-7.46c9.04-6.8,12.59-24.13,5.65-36.18C-343.66,99.21-355.8,99.66-361.87,97.29z"/>
	<path id="ombre1" style="fill:#24405B;" d="M-73.75,315.07l-173.89-175.99l-90.28,91.37l5.38,5.44l-51.4,52.02l42.07,42.58
		l-5.53,5.6l45.55,46.1l-52.51,53.15l89.71,90.79C-163.21,494.54-85.43,420.41-73.75,315.07z"/>
	<path id="africa_2_" style="fill:#C6DB7B;" d="M-169.29,134.92c-1.82,1.65-4.45,4.19-7.41,7.62c-3.44,3.98-3.72,4.98-5.86,6.67
		c-4.88,3.86-7.65,2-9.25,4.96c-1.9,3.51,1.59,6.85,0.12,12.89c-1.06,4.35-3.19,3.91-5.45,8.85c-2.42,5.32-3.28,13.12-0.99,19.24
		c2.2,5.9,6.21,7.23,5.62,10.48c-0.47,2.59-3.34,3.49-6.33,5.2c-8.65,4.97-14.31,14.58-16.46,20.83c-1.21,3.52-1.02,9.73-0.64,22.13
		c0.42,13.55,0.62,20.33,2.11,24.5c2.36,6.61,6.71,11.27,15.41,20.59c5.38,5.77,7.64,7.12,9.37,7.93c2.44,1.14,4.81,1.65,15.23,1.25
		c13.11-0.49,16.74-1.58,22.32,1.12c1.97,0.95,4.62,2.23,6.68,4.84c6.03,7.64,2.57,20.98-0.23,38.62c-3.87,24.38-7.76,50.55,2,68.86
		c3.22,6.03,6.09,7.79,7.56,8.49c9.36,4.47,22.91-4.75,30.75-15.36c8.76-11.85,7.58-21.61,17.69-28.6c4.52-3.13,2.93-2.74,6.12-6.29
		c5.17-5.78,7.51-12.33,9.78-25.67c2.27-13.37,5.01-17.29,6.47-24.87c2.95-15.33,8.51-68.07-12.81-120.19
		c-11.1-27.13-22.24-40.36-35.5-55.87c-13.4-15.67-34.28-36.81-47.36-30.01C-164.83,125.46-167.58,130.48-169.29,134.92z"/>
	<path id="shadow_x5F_africa" style="fill:#AFBF6F;" d="M-202.19,187.85c0.06,2.53,0.48,5.04,1.33,7.31
		c2.2,5.9,6.21,7.23,5.62,10.48c-0.47,2.59-3.34,3.49-6.33,5.2c-8.65,4.97-14.31,14.58-16.46,20.83c-1.21,3.52-1.02,9.73-0.64,22.13
		c0.42,13.55,0.62,20.33,2.11,24.5c2.36,6.61,6.71,11.27,15.41,20.59c5.38,5.77,7.64,7.12,9.37,7.93c2.44,1.14,4.81,1.65,15.23,1.25
		c13.11-0.49,16.74-1.58,22.32,1.12c1.97,0.95,4.62,2.23,6.68,4.84c6.03,7.64,2.57,20.98-0.23,38.62c-3.87,24.38-7.76,50.55,2,68.86
		c3.22,6.03,6.09,7.79,7.56,8.49c5.25,2.51,11.82,0.71,17.96-3.23c23.52-31.64,39.05-69.12,43.77-111.7L-202.19,187.85z"/>
	
		<circle id="background_x5F_color" style="fill:none;stroke:#5B4B39;stroke-width:27;stroke-miterlimit:10;" cx="-309.4" cy="294.64" r="251.13"/>
	<path id="F" style="fill:#FFFFFF;" d="M-353,200.57c0,7.62,0,42.43,0,42.43h-31v52h31v153h63V295h42.78c0,0,4.01-24.85,5.95-52
		c-5.57,0-48.73,0-48.73,0s0-30.25,0-35.55c0-5.31,6.97-12.45,13.87-12.45c6.88,0,21.8,0,35.13,0c0-6.94,0-30.88,0-53
		c-17.81,0-38.06,0-47,0C-354.57,142-353,192.96-353,200.57z"/>
</g>
<g id="earth">
	<g id="sea">
		<circle style="fill:#66CCCC;" cx="300.5" cy="293.5" r="278.5"/>
		<path style="fill:#344F44;" d="M579,293.5c-0.05-18.23-1.86-36.45-5.43-54.32c-3.57-17.87-9.01-35.35-16.06-52.13
			c-14.13-33.56-35.06-64.18-61.04-89.51c-25.97-25.35-56.96-45.39-90.52-58.61c-33.56-13.26-69.63-19.59-105.45-18.94
			c-35.83,0.68-71.34,8.41-103.92,22.64c-32.6,14.17-62.25,34.74-86.93,60.04C84.99,127.97,65.31,158,52.07,190.6
			c-6.66,16.29-11.66,33.23-15.02,50.48c-3.39,17.25-5.06,34.83-5.05,52.42c-0.02,35.18,6.82,70.3,20.1,102.89
			c6.67,16.27,14.84,31.96,24.52,46.7c9.69,14.72,20.74,28.58,33.08,41.23c24.68,25.29,54.32,45.86,86.92,60.02
			c16.3,7.07,33.3,12.62,50.73,16.4c17.42,3.8,35.26,5.88,53.17,6.24c35.81,0.66,71.88-5.68,105.43-18.93
			c33.56-13.21,64.55-33.25,90.52-58.59c25.98-25.33,46.91-55.94,61.05-89.5c7.05-16.78,12.49-34.26,16.06-52.13
			C577.14,329.95,578.94,311.73,579,293.5z M579,293.5c0.03,36.46-7.06,72.92-20.84,106.72c-13.75,33.82-34.17,64.94-59.76,91.18
			c-25.6,26.22-56.34,47.54-90.16,62.21c-16.9,7.34-34.55,13.07-52.62,16.98c-18.07,3.93-36.56,6.07-55.12,6.43
			c-37.1,0.66-74.51-5.93-109.28-19.7c-34.78-13.72-66.88-34.51-93.77-60.78c-26.9-26.25-48.57-57.98-63.2-92.76
			c-7.3-17.39-12.95-35.51-16.63-54.03c-3.7-18.51-5.58-37.39-5.61-56.26c0.05-18.87,1.92-37.75,5.62-56.26
			c3.72-18.51,9.34-36.63,16.64-54.02c14.65-34.77,36.32-66.49,63.21-92.74c26.89-26.26,58.98-47.04,93.75-60.76
			c34.77-13.76,72.17-20.35,109.26-19.7c18.55,0.36,37.04,2.5,55.11,6.42c18.08,3.91,35.71,9.64,52.62,16.97
			c33.82,14.67,64.56,35.98,90.16,62.19c25.58,26.23,46.01,57.35,59.76,91.17C571.94,220.58,579.03,257.04,579,293.5z"/>
	</g>
	<path id="ombres" style="fill:#6CAFC4;" d="M476.11,475.69c-150.29-32.72-245.6-181.08-212.88-331.37
		C273.96,95.02,300.39,56.89,332,22C193.3,8.33,60.03,95.19,29.66,234.7C-3.07,384.99,96.71,531.28,247,564
		c100.99,21.99,196.25-17.53,261-89C497.28,473.94,486.89,478.04,476.11,475.69z"/>
	<path id="america" style="fill:#8BBC7A;stroke:#2A3826;stroke-width:6;stroke-miterlimit:10;" d="M190,44c-17,0-28,2-61,27
		c-21.03,15.94-41.4,35.42-62.19,70.95C41.21,185.68,14.33,248.49,30.5,263.5c2.05,1.91,14.61,12.87,21.5,19.5
		c4.8,4.62,10.61,10.29,16,19c4.93,7.97,8.88,14.36,9,23c0.09,6.55-2.14,5.73-4,18c-1.46,9.64-0.26,11.24-2,21
		c-1.65,9.23-3.01,9.34-3,14c0.01,7.6,3.62,13.07,9,21c7.51,11.07,15.36,18.11,22,24c6.69,5.93,11.04,9.78,18,14
		c7.25,4.39,10.87,5.27,16,10c5.26,4.85,8.07,10.04,10,14c9.37,19.24,11.16,36.83,16,48c14.23,32.87,69.17,43.33,76,34
		c2.12-2.9-1.25-6.57,0-21c0.38-4.43,0.68-3.79,2-13c1.78-12.36,1.44-14.83,3-24c1.35-7.95,2.03-11.92,3-14
		c5.57-11.9,16.35-11.1,23-21c5.48-8.17,13.36-28.51,15-43c3.23-28.51,3.53-30.02-1-40c-5.35-11.79-14.56-3.3-46-19
		c-18.6-9.29-39.88-27.22-46-34c-12.02-13.32-20.55-9.53-34-15c-13.45-5.47-17.7,1.19-26-4c-16.65-10.41-14.12-42.29-12-69
		c2.19-27.63,8.63-36.88,11-40c9.29-12.2,22-19,22-19c6.95-3.72,10.72-4.02,17-9c8.08-6.4,6.57-9.64,13-15
		c11.7-9.75,21.33-2.92,30-12c5.52-5.78,3-10,9-20c6.51-10.84,12.52-9.69,17-17c7.57-12.36,3.79-34.79-10-46
		C212.45,37.8,198.28,44,190,44z"/>
	<path id="africa" style="fill:#DCF281;stroke:#102E3A;stroke-width:5;stroke-miterlimit:10;" d="M371,57
		c-2.85,2.52-6.96,6.37-11.5,11.5c-5.28,5.96-5.61,7.39-9,10c-7.73,5.95-12.69,3.67-15,8c-2.74,5.13,3.65,9.4,2,18
		c-1.19,6.2-4.87,5.84-8,13c-3.37,7.71-3.73,18.72,1,27c4.56,7.99,11.54,9.39,11,14c-0.43,3.68-5.18,5.26-10,8
		c-13.98,7.95-22.23,22.03-25,31c-1.56,5.07-0.38,13.71,2,31c2.6,18.89,3.89,28.34,7,34c4.92,8.97,12.95,14.98,29,27
		c9.93,7.44,13.94,9.07,17,10c4.3,1.31,8.39,1.75,26,0c22.17-2.2,28.16-4.13,38-1c3.48,1.1,8.14,2.59,12,6
		c11.3,9.98,7.28,29.03,5,54c-3.16,34.51-6.11,71.53,13,96c6.29,8.06,11.41,10.19,14,11c16.49,5.17,38.18-9.27,50-25
		c13.2-17.57,9.83-31.07,26-42c7.24-4.89,4.59-4.16,9.5-9.5c7.97-8.67,11.02-18.09,13-37c1.98-18.95,6.08-24.74,7.5-35.5
		c2.87-21.76,4.92-96.11-38.5-166.5c-22.6-36.64-43.34-53.85-68-74c-24.92-20.36-63.26-47.51-84.5-36.5
		C377.24,43.26,373.28,50.59,371,57z"/>
</g>
<g id="options">
	
		<polygon style="fill:#605B52;stroke:#EAEAEA;stroke-width:27.9048;stroke-linecap:square;stroke-linejoin:round;stroke-miterlimit:10;" points="
		-2193.19,654.48 -2423.41,787.39 -2423.41,1053.22 -2193.19,1186.13 -1962.98,1053.22 -1962.98,787.39 	"/>
	<g>
		<path style="fill:#938A7A;" d="M-2202.63,712.53l-161.23,93.09c-7.72,4.46-12.47,12.69-12.47,21.6v186.18
			c0,8.91,4.75,17.15,12.47,21.6l161.23,93.09c7.72,4.46,17.23,4.46,24.95,0l161.23-93.09c7.72-4.46,12.47-12.69,12.47-21.6
			l0-186.18c0-8.91-4.75-17.15-12.47-21.6l-161.23-93.09C-2185.4,708.07-2194.91,708.07-2202.63,712.53z"/>
	</g>
</g>
<g id="logo">
	<linearGradient id="circle_8_" gradientUnits="userSpaceOnUse" x1="-1821" y1="929" x2="-1299" y2="929">
		<stop  offset="0.0691" style="stop-color:#DD7610"/>
		<stop  offset="0.2175" style="stop-color:#E57B0E"/>
		<stop  offset="0.4486" style="stop-color:#FB8709"/>
		<stop  offset="0.4822" style="stop-color:#FF8908"/>
		<stop  offset="0.8711" style="stop-color:#E55C00"/>
	</linearGradient>
	
		<circle id="circle" style="fill:url(#circle_8_);stroke:#FFFFFF;stroke-width:12;stroke-miterlimit:10;" cx="-1560" cy="929" r="261"/>
	<path id="face" style="fill:#1E1E1A;" d="M-1477.11,1033.8c-5.32-3.68-8.61-2.76-10.56-6.33c-2.55-4.68,1.23-9.71-1.41-11.96
		c-2.17-1.85-5.19,1.14-8.45-0.7c-3.53-2-1.84-6.59-5.63-9.85c-3.17-2.73-5.83-0.79-9.15-2.82c-6.09-3.72-0.98-14.12-6.33-18.3
		c-10.2-7.96-24.6,6.23-42.93,0.7c-15.54-4.69-13.74-19.13-30.26-25.34c-21.06-7.9-40.04-0.58-50.67,3.52
		c-38.52,14.86-55.02,50.36-59.12,59.12c-7.88,16.82-11.28,42.55-8.45,67.56c4.33,38.16,58.53,25.86,84.45,49.26
		c13.42,12.11-7.6,24-8.31,39.2c21.22,5.57,44.18,10.84,67.15,10.84c21.1,0,40.36-1.17,60-5.9c0.2-1.34,0.46-2.89,0.8-4.73
		c2.55-13.68,4.76-16.33,6.33-25.34c1.28-7.32,0.16-7.48,0-28.85c-0.12-15.93-0.18-23.9,0.7-26.74c0.79-2.53,2.06-5.67,22.52-31.67
		c6.65-8.45,9.81-12.31,9.15-17.59C-1467.96,1042.23-1472.78,1036.79-1477.11,1033.8z"/>
	<path id="face_x5F_light" style="fill:#352A1B;" d="M-1478.37,1036.11c-5.32-3.68-8.61-2.76-10.56-6.33
		c-2.55-4.68,1.23-9.71-1.41-11.96c-2.17-1.85-5.19,1.14-8.45-0.7c-3.53-2-1.84-6.59-5.63-9.85c-3.17-2.73-5.83-0.79-9.15-2.82
		c-6.09-3.72-0.98-14.12-6.33-18.3c-10.2-7.96-24.6,6.23-42.93,0.7c-15.54-4.69-13.74-19.13-30.26-25.34
		c-21.06-7.9-40.04-0.58-50.67,3.52c-10.6,4.09-19.52,9.74-26.99,15.97c103.75,21.28,148.85,59.16,183.77,75.76
		c5.3,2.52,11.69-0.21,17.47-0.6c0.91-2.01,1.26-3.88,0.99-5.97C-1469.22,1044.55-1474.05,1039.1-1478.37,1036.11z"/>
	<g id="B">
		<path style="fill-rule:evenodd;clip-rule:evenodd;fill:#D1D3D4;" d="M-1521.41,908.79c0.06,0,0.1,0.01,0.11,0.02
			c0.17,0.17,0.2,0.34,0.11,0.57c-0.25,0.6-1.26,1.22-1.8,1.22c-0.28-0.18-0.31-0.36-0.22-0.59
			C-1522.96,909.4-1521.95,908.79-1521.41,908.79L-1521.41,908.79z"/>
		<path style="fill-rule:evenodd;clip-rule:evenodd;fill:#D1D3D4;" d="M-1586.97,835.15
			C-1584.09,827.72-1574.01,837.79-1586.97,835.15L-1586.97,835.15L-1586.97,835.15z"/>
		<path style="fill-rule:evenodd;clip-rule:evenodd;fill:#D1D3D4;" d="M-1501.85,830.58c0.07,0,0.1,0.01,0.11,0.01
			c0.17,0.17,0.2,0.34,0.11,0.57c-0.25,0.6-1.26,1.22-1.8,1.22c-0.28-0.19-0.31-0.36-0.22-0.59
			C-1503.41,831.19-1502.4,830.58-1501.85,830.58L-1501.85,830.58z"/>
		<path style="fill:#FCFCFC;stroke:#1A1B23;stroke-miterlimit:10;" d="M-1520.23,862.25l-13.51,13.51c0.76,0.42,1.46,0.88,2.06,1.4
			c1.47,1.27,2.5,2.82,3.1,4.66c0.61,1.84,0.91,3.91,0.91,6.21c0,2.01-0.26,4-0.77,5.95c-0.52,1.95-1.47,3.71-2.85,5.26
			c-1.38,1.55-3.29,2.82-5.74,3.8c-2.45,0.98-5.59,1.46-9.45,1.46h-16l-22,22h38.52c7.53,0,14.23-0.96,20.1-2.89
			c5.87-1.93,10.8-4.6,14.8-8.02c4-3.42,7.03-7.43,9.1-12.04c2.07-4.6,3.1-9.57,3.1-14.92c0-7.07-1.98-12.87-5.95-17.38
			C-1508.29,867.28-1513.43,864.29-1520.23,862.25L-1520.23,862.25z"/>
		<polygon style="fill:#233459;" points="-1529.97,841.33 -1532.38,838.92 -1508.89,815.43 -1506.48,817.84 -1529.97,841.33 		"/>
		<polygon style="fill:#27365B;" points="-1531.18,832.9 -1533.59,830.49 -1513.4,810.31 -1511,812.72 -1531.18,832.9 		"/>
		<g>
			<path style="fill:#212A3F;" d="M-1566,856v-31h17.22c3.3,0,6.16,0.26,8.57,0.78c2.34,0.51,4.28,1.35,5.83,2.52l18.73-18.73
				c-3.09-1.67-6.67-3.06-10.77-4.14c-6.15-1.62-13.6-2.43-22.35-2.43H-1595v85.81l32.56-32.81H-1566L-1566,856z"/>
			<polygon style="fill:#212A3F;" points="-1535.89,876.16 -1538.3,873.76 -1503.95,839.41 -1501.54,841.82 -1535.89,876.16 			"/>
			<polygon style="fill:#212A3F;" points="-1587.24,927.52 -1589.65,925.11 -1567.52,902.97 -1565.11,905.38 -1587.24,927.52 			"/>
			<polygon style="fill:#212A3F;" points="-1544.13,874.77 -1546.54,872.36 -1503.52,829.34 -1501.11,831.75 -1544.13,874.77 			"/>
			<polygon style="fill:#212A3F;" points="-1594.28,924.92 -1596.69,922.51 -1567.62,893.44 -1565.21,895.85 -1594.28,924.92 			"/>
			<polygon style="fill:#212A3F;" points="-1553.77,874.77 -1556.18,872.36 -1505.57,821.76 -1503.17,824.16 -1553.77,874.77 			"/>
			<polygon style="fill:#212A3F;" points="-1594.28,915.28 -1596.69,912.87 -1567.62,883.8 -1565.21,886.21 -1594.28,915.28 			"/>
			<polygon style="fill:#212A3F;" points="-1563.41,874.77 -1565.82,872.36 -1545.94,852.48 -1543.53,854.89 -1563.41,874.77 			"/>
			<polygon style="fill:#212A3F;" points="-1594.28,905.64 -1596.69,903.23 -1567.62,874.17 -1565.21,876.58 -1594.28,905.64 			"/>
			<polygon style="fill:#212A3F;" points="-1594.28,896 -1596.69,893.59 -1555.88,852.78 -1553.47,855.19 -1594.28,896 			"/>
		</g>
	</g>
	<g id="D">
		<path style="fill-rule:evenodd;clip-rule:evenodd;fill:#18223A;" d="M-1725.8,826.12c0.07,0,0.12,0.01,0.12,0.02
			c0.19,0.19,0.23,0.39,0.12,0.65c-0.28,0.69-1.43,1.38-2.05,1.38c-0.32-0.21-0.36-0.41-0.25-0.67
			C-1727.58,826.82-1726.43,826.12-1725.8,826.12L-1725.8,826.12z"/>
		<path style="fill-rule:evenodd;clip-rule:evenodd;fill:#18223A;" d="M-1670.1,812.19c0.08,0,0.11,0.01,0.12,0.02
			c0.2,0.19,0.23,0.39,0.13,0.65c-0.28,0.69-1.43,1.38-2.05,1.38c-0.31-0.21-0.36-0.41-0.25-0.67
			C-1671.87,812.89-1670.72,812.19-1670.1,812.19L-1670.1,812.19z"/>
		<path style="fill-rule:evenodd;clip-rule:evenodd;fill:#18223A;" d="M-1664.53,801.05c0.08,0,0.12,0.02,0.13,0.02
			c0.19,0.19,0.23,0.39,0.12,0.65c-0.28,0.69-1.44,1.39-2.06,1.39c-0.31-0.21-0.35-0.41-0.25-0.67
			C-1666.3,801.75-1665.15,801.05-1664.53,801.05L-1664.53,801.05z"/>
		<polygon style="fill:#18223A;" points="-1744.41,917.09 -1747.15,914.34 -1721.58,888.77 -1718.84,891.51 -1744.41,917.09 		"/>
		<polygon style="fill:#18223A;" points="-1755.39,917.09 -1758.13,914.34 -1725.7,881.91 -1722.95,884.65 -1755.39,917.09 		"/>
		<polygon style="fill:#18223A;" points="-1755.94,906.65 -1758.68,903.91 -1725.56,870.78 -1722.82,873.53 -1755.94,906.65 		"/>
		<polygon style="fill:#18223A;" points="-1755.94,895.67 -1758.68,892.92 -1725.56,859.8 -1722.82,862.55 -1755.94,895.67 		"/>
		<polygon style="fill:#18223A;" points="-1755.94,884.68 -1758.68,881.94 -1725.56,848.82 -1722.81,851.56 -1755.94,884.68 		"/>
		<polygon style="fill:#18223A;" points="-1661.48,842.04 -1664.22,839.29 -1636.75,811.82 -1634.01,814.57 -1661.48,842.04 		"/>
		<polygon style="fill:#18223A;" points="-1662.85,832.43 -1665.59,829.68 -1640.88,804.97 -1638.13,807.71 -1662.85,832.43 		"/>
		<polygon style="fill:#18223A;" points="-1665.17,823.77 -1667.92,821.02 -1645.26,798.37 -1642.52,801.11 -1665.17,823.77 		"/>
		<polygon style="fill:#18223A;" points="-1668.95,816.56 -1671.69,813.82 -1650.41,792.54 -1647.67,795.28 -1668.95,816.56 		"/>
		<polygon style="fill:#18223A;" points="-1674.1,810.73 -1676.84,807.98 -1656.25,787.39 -1653.5,790.13 -1674.1,810.73 		"/>
		<polygon style="fill:#18223A;" points="-1680.36,806.01 -1683.1,803.26 -1663.13,783.29 -1660.38,786.03 -1680.36,806.01 		"/>
		<path style="fill:#FCFCFC;stroke:#1A1D2D;stroke-miterlimit:10;" d="M-1635.17,816.43l-27.62,27.62c0.01,0.45,0.04,0.89,0.04,1.35
			c0,6.99-0.9,13.27-2.69,18.85c-1.79,5.58-4.38,10.31-7.74,14.18c-3.37,3.88-7.49,6.86-12.35,8.94
			c-4.87,2.09-10.42,3.13-16.64,3.13h-7.07l-25,25h32.07c10.9,0,20.82-1.74,29.76-5.24c8.94-3.49,16.59-8.37,22.93-14.62
			c6.35-6.25,11.26-13.65,14.76-22.21c3.49-8.56,5.24-17.9,5.24-28.03c0-10.06-1.75-19.38-5.24-27.93
			C-1634.86,817.12-1635.02,816.78-1635.17,816.43L-1635.17,816.43z"/>
		<path style="fill:#18223A;" d="M-1725,800h21.93c6.28,0,11.87,1.04,16.79,3.13c1.31,0.55,2.55,1.18,3.75,1.86l19.88-19.7
			c-3.25-1.89-6.7-3.56-10.38-5c-9.03-3.52-19.04-5.29-30.04-5.29H-1758v104.76l33-32.69V800L-1725,800z"/>
	</g>
	<g id="S">
		<path style="fill-rule:evenodd;clip-rule:evenodd;fill:#212A3F;" d="M-1385.81,876.37c0.09,0,0.13,0.01,0.14,0.02
			c0.21,0.22,0.26,0.44,0.14,0.73c-0.32,0.77-1.62,1.56-2.31,1.56c-0.36-0.23-0.4-0.46-0.28-0.75
			C-1387.8,877.16-1386.51,876.37-1385.81,876.37L-1385.81,876.37z"/>
		<path style="fill-rule:evenodd;clip-rule:evenodd;fill:#212A3F;" d="M-1386.94,865.11c0.18,0,0.4,0.12,0.59,0.31
			c0.31,0.31,0.5,0.74,0.49,1.13c-0.15,0.86-0.48,1.45-0.85,1.45c-0.18,0-0.4-0.12-0.59-0.31c-0.31-0.31-0.49-0.74-0.49-1.13
			C-1387.65,865.7-1387.32,865.11-1386.94,865.11L-1386.94,865.11z"/>
		<path style="fill-rule:evenodd;clip-rule:evenodd;fill:#D1D3D4;" d="M-1528.4,1194.44c0.03,0,0.05,0.01,0.05,0.01
			c0.08,0.08,0.09,0.15,0.05,0.26c-0.11,0.27-0.57,0.55-0.82,0.55c-0.13-0.08-0.14-0.16-0.1-0.27
			C-1529.1,1194.72-1528.65,1194.44-1528.4,1194.44L-1528.4,1194.44z"/>
		<polygon style="fill:#212A3F;" points="-1408.08,846.24 -1411.16,843.15 -1385.28,817.27 -1382.19,820.36 -1408.08,846.24 		"/>
		<polygon style="fill:#212A3F;" points="-1417.73,843.54 -1420.82,840.45 -1393.78,813.41 -1390.69,816.5 -1417.73,843.54 		"/>
		<polygon style="fill:#212A3F;" points="-1427,840.45 -1430.09,837.36 -1402.66,809.93 -1399.57,813.02 -1427,840.45 		"/>
		<polygon style="fill:#212A3F;" points="-1436.27,837.36 -1439.36,834.27 -1411.93,806.84 -1408.84,809.93 -1436.27,837.36 		"/>
		<polygon style="fill:#212A3F;" points="-1444.69,833.41 -1447.77,830.32 -1421.12,803.67 -1418.03,806.75 -1444.69,833.41 		"/>
		<polygon style="fill:#212A3F;" points="-1455,900.4 -1458.09,897.3 -1434.88,874.09 -1431.79,877.18 -1455,900.4 		"/>
		<polygon style="fill:#212A3F;" points="-1463.1,896.13 -1466.19,893.04 -1443.01,869.86 -1439.92,872.95 -1463.1,896.13 		"/>
		<polygon style="fill:#212A3F;" points="-1469.88,890.55 -1472.97,887.46 -1450.54,865.03 -1447.45,868.12 -1469.88,890.55 		"/>
		<polygon style="fill:#212A3F;" points="-1382.57,786.43 -1385.66,783.34 -1365.93,763.62 -1362.84,766.7 -1382.57,786.43 		"/>
		<polygon style="fill:#212A3F;" points="-1390.28,781.78 -1393.37,778.69 -1370.96,756.28 -1367.87,759.37 -1390.28,781.78 		"/>
		<path style="fill:#212A3F;" d="M-1429.07,799.54c-2.04-2.11-3.06-4.77-3.06-7.98c0-5.03,1.69-9.01,5.08-11.96
			c3.39-2.95,8.54-4.42,15.46-4.42c4,0,7.58,0.53,10.71,1.58c0.47,0.16,0.91,0.33,1.37,0.49l23.05-23.05
			c-2.6-1.3-5.28-2.52-8.14-3.55c-4.15-1.49-8.54-2.62-13.16-3.39c-4.62-0.76-9.38-1.15-14.25-1.15c-8.74,0-16.5,1.33-23.27,3.99
			c-6.77,2.66-12.49,6.21-17.15,10.65c-4.66,4.45-8.19,9.51-10.6,15.19c-2.4,5.68-3.6,11.51-3.6,17.48c0,7.43,1.02,13.67,3.06,18.74
			c2.04,5.06,4.72,9.28,8.03,12.67c1.41,1.45,2.93,2.75,4.51,3.95l26-26C-1426.59,801.79-1427.94,800.72-1429.07,799.54
			L-1429.07,799.54z"/>
		<path style="fill:#F7F7F7;stroke:#2A2D3F;stroke-miterlimit:10;" d="M-1372.21,827.07c-1.96-1.94-4.11-3.65-6.4-5.18l-25.7,25.7
			c2.12,1.26,3.93,2.72,5.39,4.39c2.04,2.33,3.06,5.35,3.06,9.07c0,6.41-1.86,11.09-5.57,14.04c-3.72,2.95-8.92,4.43-15.62,4.43
			c-4.95,0-9.25-0.69-12.89-2.08c-1.03-0.39-2.02-0.8-2.99-1.22l-23.19,23.19c2.55,1.28,5.2,2.47,7.94,3.53
			c4.81,1.86,9.78,3.29,14.91,4.31c5.14,1.02,10.18,1.53,15.13,1.53c9.03,0,17.09-1.37,24.19-4.1c7.1-2.73,13.07-6.48,17.92-11.25
			c4.84-4.77,8.54-10.36,11.09-16.77c2.55-6.41,3.82-13.29,3.82-20.65c0-6.63-1.02-12.29-3.06-16.99
			C-1366.22,834.34-1368.9,830.35-1372.21,827.07L-1372.21,827.07z"/>
	</g>
	<g id="star">
		<g>
			<linearGradient id="SVGID_2_" gradientUnits="userSpaceOnUse" x1="-1520.052" y1="729.7988" x2="-1618.7726" y2="716.8997">
				<stop  offset="0.0135" style="stop-color:#F9C34B"/>
				<stop  offset="0.4124" style="stop-color:#F9C854"/>
				<stop  offset="0.9244" style="stop-color:#F9D367"/>
			</linearGradient>
			<polygon style="fill:url(#SVGID_2_);" points="-1577.45,703.5 -1556.73,642.24 -1535.65,702.5 -1473.86,702.5 -1521.96,741.39 
				-1504.94,799.84 -1556.73,765.07 -1608.9,800.95 -1590.77,741.76 -1638.49,703.5 			"/>
			<path style="fill:#191919;" d="M-1577.45,703.5l20.13-61.46l0.56-1.7l0.61,1.69c7.23,20.01,14.3,40.09,21.45,60.13l-0.95-0.67
				l30.89-0.16l30.89-0.12l3.65-0.01l-2.84,2.3l-48.03,38.97l0.46-1.47l17.12,58.42l1.17,3.98l-3.44-2.32l-51.73-34.87l1.56-0.01
				l-52.23,35.79l-3.04,2.08l1.09-3.51l18.42-59.1l0.32,1.05l-23.76-19.26l-23.72-19.31l-1.31-1.07l1.68,0.02L-1577.45,703.5z
				 M-1577.45,703.5l-61.04,0.59l0.37-1.05l24,18.95l23.96,19l0.52,0.41l-0.19,0.64l-17.84,59.28l-1.95-1.43l52.1-35.98l0.78-0.54
				l0.79,0.53l51.85,34.68l-2.27,1.66l-16.92-58.48l-0.26-0.89l0.72-0.58l48.16-38.81l0.81,2.29l-30.89-0.12l-30.89-0.16l-0.72,0
				l-0.23-0.67c-6.9-20.13-13.9-40.23-20.72-60.39l1.17-0.01L-1577.45,703.5z"/>
		</g>
		<g>
			<polygon style="fill:#E5AC2E;" points="-1608.62,800.95 -1556.34,765.48 -1507.32,798.24 -1554.47,741.2 			"/>
			<path style="fill:#191919;" d="M-1608.62,800.95c8.94-6.11,17.68-12.25,26.23-18.41c4.27-3.09,8.49-6.06,12.73-9.06l12.72-8.91
				l0.58-0.41l0.62,0.4l12.35,8.05l12.31,8.11c8.21,5.4,16.4,10.83,24.57,16.29l-1.95,2.15c-7.89-9.48-15.74-19-23.57-28.52
				l-23.43-28.64l1.93,0.04c-8.98,9.72-18.03,19.31-27.21,29.03l-13.93,14.75C-1599.31,790.81-1603.96,795.85-1608.62,800.95z
				 M-1608.62,800.95c4.37-4.85,8.74-9.78,13.12-14.76l13.14-15.13c8.86-10.2,17.87-20.53,26.94-30.73l0.98-1.1l0.95,1.14
				l23.71,28.41c7.89,9.48,15.76,18.98,23.58,28.52l6.3,7.67l-8.24-5.52c-8.16-5.47-16.31-10.96-24.44-16.48l-12.2-8.27l-12.16-8.34
				l1.2,0l-13.42,8.83c-4.48,2.92-8.97,5.86-13.41,8.68C-1591.45,789.55-1600.14,795.24-1608.62,800.95z"/>
		</g>
		<g>
			<linearGradient id="SVGID_3_" gradientUnits="userSpaceOnUse" x1="-1441.3524" y1="724.2514" x2="-1473.1918" y2="720.0912">
				<stop  offset="0.0135" style="stop-color:#F9C34B"/>
				<stop  offset="0.4124" style="stop-color:#F9C854"/>
				<stop  offset="0.9244" style="stop-color:#F9D367"/>
			</linearGradient>
			<polygon style="fill:url(#SVGID_3_);" points="-1459.93,716.5 -1453.23,695.96 -1446.42,715.5 -1426.46,715.5 -1442,727.99 
				-1436.5,746.88 -1453.23,735.64 -1470.09,747.23 -1464.23,728.11 -1479.65,716.5 			"/>
			<path style="fill:#191919;" d="M-1459.93,716.5l6.09-20.74l0.53-1.79l0.68,1.78c1.23,3.22,2.43,6.46,3.62,9.69l3.58,9.71l-1-0.71
				l19.96-0.25l3.72-0.05l-2.9,2.37l-15.45,12.6l0.48-1.53l5.55,18.87l1.17,3.99l-3.45-2.33l-16.7-11.28l1.62-0.01l-16.94,11.46
				l-3.08,2.08l1.13-3.51l6.12-19.04l0.36,1.1l-7.6-5.95c-2.54-1.98-5.05-3.99-7.57-5.99l-1.4-1.11l1.75,0.05L-1459.93,716.5z
				 M-1459.93,716.5l-19.72,0.59l0.35-1.06c2.62,1.87,5.25,3.73,7.85,5.62l7.82,5.66l0.56,0.4l-0.2,0.69l-5.59,19.2l-1.95-1.43
				l16.76-11.73l0.8-0.56l0.82,0.55l16.76,11.19l-2.27,1.66l-5.45-18.9l-0.27-0.94l0.75-0.6l15.63-12.38l0.82,2.32l-19.96-0.25
				l-0.77-0.01l-0.23-0.7l-3.23-9.83c-1.08-3.28-2.15-6.56-3.19-9.85l1.2-0.01l-3.67,10.28L-1459.93,716.5z"/>
		</g>
		<g>
			<polygon style="fill:#E5AC2E;" points="-1470,747.23 -1453.11,735.77 -1437.27,746.36 -1452.5,727.93 			"/>
			<path style="fill:#191919;" d="M-1470,747.23c3.04-2.1,5.9-4.28,8.53-6.4c1.32-1.07,2.6-2.07,3.87-3.07
				c1.27-1,2.56-1.96,3.86-2.9l0.57-0.41l0.66,0.41c2.7,1.67,5.39,3.36,8.05,5.09c2.68,1.7,5.34,3.44,7.98,5.19l-1.95,2.15
				c-2.57-3.04-5.1-6.12-7.61-9.22c-2.54-3.07-4.99-6.21-7.48-9.33l1.93,0.04c-1.42,1.5-2.87,2.96-4.34,4.42
				c-1.45,1.46-2.99,2.9-4.54,4.39c-1.54,1.48-3.17,3.02-4.76,4.63C-1466.79,743.83-1468.4,745.5-1470,747.23z M-1470,747.23
				c1.32-1.49,2.63-3.03,3.93-4.64c1.33-1.61,2.61-3.29,3.99-5.02c1.37-1.73,2.74-3.51,4.21-5.27c1.45-1.76,2.92-3.51,4.41-5.23
				l0.95-1.1l0.98,1.15c2.59,3.03,5.21,6.03,7.75,9.1c2.57,3.05,5.12,6.11,7.62,9.21l6.13,7.58l-8.07-5.43
				c-2.63-1.77-5.25-3.57-7.85-5.39c-2.61-1.8-5.2-3.64-7.78-5.49l1.23,0c-1.51,0.97-3.04,1.92-4.58,2.83
				c-1.54,0.91-3.07,1.82-4.57,2.66C-1464.64,743.88-1467.41,745.51-1470,747.23z"/>
		</g>
		<g>
			<linearGradient id="SVGID_4_" gradientUnits="userSpaceOnUse" x1="-1643.5592" y1="730.5795" x2="-1675.3986" y2="726.4193">
				<stop  offset="0.0135" style="stop-color:#F9C34B"/>
				<stop  offset="0.4124" style="stop-color:#F9C854"/>
				<stop  offset="0.9244" style="stop-color:#F9D367"/>
			</linearGradient>
			<polygon style="fill:url(#SVGID_4_);" points="-1662.09,722.5 -1655.4,702.3 -1648.59,721.5 -1628.63,721.5 -1644.16,734.33 
				-1638.67,753.21 -1655.4,741.97 -1672.25,753.57 -1666.39,734.45 -1681.81,722.5 			"/>
			<path style="fill:#191919;" d="M-1662.09,722.5l6.1-20.4l0.52-1.74l0.67,1.72c1.23,3.17,2.43,6.34,3.62,9.53l3.58,9.54l-0.99-0.7
				l19.96-0.25l3.63-0.05l-2.8,2.35l-15.44,12.94l0.47-1.52l5.55,18.87l1.17,3.99l-3.45-2.33l-16.7-11.28l1.62-0.01l-16.94,11.46
				l-3.08,2.09l1.13-3.52l6.12-19.04l0.35,1.1c-5.06-4.09-10.14-8.14-15.16-12.28l-1.34-1.11l1.7,0.05L-1662.09,722.5z
				 M-1662.09,722.5l-19.72,0.59l0.36-1.06c5.26,3.83,10.45,7.74,15.68,11.61l0.55,0.41l-0.2,0.69l-5.6,19.2l-1.95-1.43l16.76-11.72
				l0.8-0.56l0.82,0.55l16.76,11.19l-2.27,1.66l-5.45-18.9l-0.27-0.92l0.73-0.6l15.63-12.71l0.83,2.3l-19.96-0.25l-0.76-0.01
				l-0.23-0.69l-3.23-9.67c-1.08-3.22-2.15-6.45-3.19-9.68l1.19-0.01l-3.67,10.11L-1662.09,722.5z"/>
		</g>
		<g>
			<polygon style="fill:#E5AC2E;" points="-1672.16,753.57 -1655.27,742.11 -1639.44,752.69 -1654.67,734.27 			"/>
			<path style="fill:#191919;" d="M-1672.16,753.57c3.04-2.1,5.9-4.28,8.53-6.4c1.32-1.07,2.6-2.07,3.87-3.07
				c1.27-1,2.56-1.96,3.86-2.9l0.57-0.41l0.66,0.41c2.7,1.67,5.39,3.36,8.05,5.09c2.68,1.7,5.34,3.44,7.98,5.19l-1.95,2.15
				c-2.57-3.04-5.1-6.12-7.61-9.22c-2.54-3.07-4.99-6.21-7.48-9.33l1.93,0.04c-1.42,1.5-2.87,2.96-4.34,4.42
				c-1.45,1.46-2.99,2.9-4.54,4.39c-1.54,1.48-3.17,3.02-4.75,4.63C-1668.96,750.16-1670.56,751.84-1672.16,753.57z
				 M-1672.16,753.57c1.32-1.49,2.63-3.03,3.93-4.64c1.33-1.61,2.61-3.29,3.99-5.02c1.37-1.73,2.74-3.51,4.21-5.27
				c1.45-1.76,2.92-3.51,4.41-5.23l0.95-1.1l0.98,1.15c2.59,3.03,5.21,6.03,7.75,9.1c2.57,3.05,5.12,6.11,7.62,9.21l6.13,7.58
				l-8.07-5.43c-2.63-1.77-5.25-3.57-7.85-5.39c-2.61-1.8-5.2-3.64-7.78-5.49l1.23,0c-1.51,0.97-3.04,1.92-4.58,2.83
				c-1.54,0.91-3.07,1.82-4.57,2.66C-1666.8,750.21-1669.57,751.84-1672.16,753.57z"/>
		</g>
	</g>
</g>
<g id="profil_x5F_empty">
	
		<circle id="circle_1_" style="fill:#BCBCBC;stroke:#FFFFFF;stroke-width:14;stroke-miterlimit:10;" cx="306.5" cy="926.5" r="268.5"/>
	<path id="corps_1_" style="fill:#09091C;" d="M529.78,1066.21c-16.2-23.57-49.66-43.89-70.66-52.49
		c-9.02-3.69-38.18-15.63-51.94-3.57c-5.78,5.06-5.84,11.73-16.13,22.97c0,0-7.13,7.78-17.86,14.59
		c-20.99,13.3-45.36,12.8-60.96,16.28c-13.3-1.41-28.93,2.34-50.83-8.61c-11.37-5.69-19.24-12.71-19.24-12.71
		c-11.37-10.15-12.11-16.77-18.36-21.23c-14.9-10.62-42.72,4.2-51.32,8.78c-20.7,11.03-51.9,40.48-65.12,66.64
		c49.42,58.56,130.25,96.67,207.96,91.91C406.3,1183.19,489.51,1138.09,529.78,1066.21z"/>
	<circle id="tete_1_" style="fill:#09091C;" cx="306" cy="927" r="117"/>
</g>
<g id="saturne">
	<circle id="planet" style="fill:#F4AD31;" cx="-959" cy="930" r="177"/>
	<path id="ombresaturne" style="fill:#E5A32C;" d="M-1076.5,933.39c0-91.11,68.9-166.11,157.44-175.78
		c-12.87-2.98-26.27-4.56-40.05-4.56c-97.67,0-176.84,79.17-176.84,176.84s79.17,176.84,176.84,176.84c6.56,0,13.03-0.37,19.4-1.06
		C-1018.08,1087.53-1076.5,1017.28-1076.5,933.39z"/>
	
		<ellipse id="tache2" transform="matrix(0.9679 -0.2512 0.2512 0.9679 -261.9233 -232.9624)" style="fill:#F4AE5B;" cx="-1043.5" cy="909.5" rx="26.22" ry="9.74"/>
	
		<ellipse id="tache1" transform="matrix(0.9647 -0.2635 0.2635 0.9647 -243.0734 -222.2413)" style="fill:#F7A334;" cx="-950" cy="795" rx="36.16" ry="10.63"/>
	<path id="tacheOmbre5" style="fill:#F4D037;" d="M-1041.42,838.03c-1.49-5.59-19.98-5.5-41.3,0.19
		c-21.31,5.69-29.81,8.87-28.32,14.45c1.49,5.59,12.41,11.47,33.73,5.78S-1039.93,843.62-1041.42,838.03z"/>
	<path id="tache5" style="fill:#D8B935;" d="M-1056.13,850.94c2.96-5.61,6.22-11.04,9.75-16.27c-7.13-1.73-21-0.54-36.33,3.55
		c-21.31,5.69-29.81,8.87-28.32,14.45s12.41,11.47,33.73,5.78C-1069.29,856.31-1062.01,853.68-1056.13,850.94z"/>
	
		<ellipse id="tache4" transform="matrix(0.8901 -0.4558 0.4558 0.8901 -529.1515 -323.3376)" style="fill:#F9C05D;" cx="-935" cy="935.5" rx="35.39" ry="12.31"/>
	
		<ellipse id="tache6" transform="matrix(0.8928 -0.4504 0.4504 0.8928 -577.9429 -285.7968)" style="fill:#EFBC73;" cx="-889.5" cy="1071.5" rx="26.22" ry="4.58"/>
	<path id="tache4_1_" style="fill:#F9C648;" d="M-1064.07,970.24c0-6.81-15.88-12.33-35.47-12.33c-19.59,0-22.4,5.52-22.4,12.33
		s2.81,12.33,22.4,12.33C-1079.95,982.58-1064.07,977.06-1064.07,970.24z"/>
	<path id="ombretache4" style="fill:#EAB82A;" d="M-1074.25,961.6c-6.44-2.28-15.39-3.69-25.29-3.69c-19.59,0-22.4,5.52-22.4,12.33
		s2.81,12.33,22.4,12.33c11.75,0,22.15-1.99,28.61-5.04C-1072.27,972.31-1073.38,967-1074.25,961.6z"/>
	<path id="tache7" style="fill:#FFC91F;" d="M-969.38,1072.28c-1.87-5.27-15.17-5.36-29.7-0.2c-14.53,5.16-15.1,10.17-13.23,15.44
		s5.47,8.8,20.01,3.64C-977.77,1086-967.51,1077.55-969.38,1072.28z"/>
	<path id="ombretache7" style="fill:#E2B433;" d="M-1005.71,1074.9c-8.02,4.18-8.13,8.32-6.6,12.62c1.87,5.27,5.47,8.8,20.01,3.64
		c2.52-0.9,4.92-1.89,7.14-2.95C-992.33,1084.24-999.2,1079.79-1005.71,1074.9z"/>
	<path id="tache3_2_" style="fill:#F29816;" d="M-794.44,970.77c-3.47-5.86-6.85-7.82-23.71,2.16
		c-16.86,9.98-27.72,22.82-24.25,28.68s19.95,2.52,36.81-7.45C-788.72,984.18-790.97,976.64-794.44,970.77z"/>
	<path id="tache3_1_" style="fill:#F9C05D;" d="M-819.11,841.18c-2.66-5.21-6.77-6.1-18.22-0.24
		c-11.45,5.86-18.57,14.83-15.91,20.03s14.1,4.68,25.55-1.18C-816.24,853.94-816.45,846.39-819.11,841.18z"/>
	<path id="anneau" style="fill:#FF6427;" d="M-1133.81,953.94c-62.6,38.92-98.52,74.66-89.44,94.26
		c15.02,32.44,147.53,8.4,295.98-53.7s256.62-138.73,241.6-171.17c-9.06-19.56-60.86-18.58-133.11-1.1l12.75,19.1
		c8.36,0.15,13.42,2.03,15.02,5.47c7.22,15.6-64.78,60.82-160.83,101c-96.05,40.18-179.76,60.09-186.98,44.49
		c-1.88-4.05,0.93-9.46,8.77-16.9"/>
	<path id="ligne_anneau" style="fill:none;stroke:#FFA748;stroke-width:9;stroke-miterlimit:10;" d="M-1132.64,962.93
		c-10.65,8.12-50.61,39.36-43.85,54.11c1.52,3.32,7.02,9.31,43.2,7.42c36.56-1.91,64.81-9.8,101.67-21.82
		c63.02-20.54,107.86-39.02,141.38-54.11c5.69-2.56,43.17-22.33,49.47-26c24.97-14.54,53.26-33.74,65.73-48.18
		c8.11-9.39,12.48-17.92,12.51-28.22c0.02-5.89-3.34-15.56-19.74-17.82c-14.22-1.96-24.42-0.43-31.46,0.36"/>
</g>
<g id="Mars">
	<circle id="planet_x5F_light" style="fill:#C94B4B;" cx="-320" cy="926" r="287"/>
	<path id="Planete_x5F_shadow" style="fill:#A54141;" d="M-318.76,639.97c-39.11,0-76.38,7.86-110.33,22.07
		c147.93,26.01,260.33,155.13,260.33,310.52c0,93.92-41.08,178.24-106.24,236c137.16-21.06,242.2-139.58,242.2-282.63
		C-32.8,768-160.83,639.97-318.76,639.97z"/>
	
		<linearGradient id="cratere2_x5F_layer1_2_" gradientUnits="userSpaceOnUse" x1="-541.0928" y1="942.5913" x2="-503.6192" y2="834.5088">
		<stop  offset="0" style="stop-color:#BF4747"/>
		<stop  offset="0.1754" style="stop-color:#AC4141"/>
		<stop  offset="0.5184" style="stop-color:#8B3737"/>
		<stop  offset="0.8055" style="stop-color:#773131"/>
		<stop  offset="1" style="stop-color:#702F2F"/>
	</linearGradient>
	<path id="cratere2_x5F_layer1" style="fill:url(#cratere2_x5F_layer1_2_);" d="M-468.96,902.71c0-36.87-15.4-66.76-52.27-66.76
		c-36.87,0-66.76,29.89-66.76,66.76c0,36.87,29.89,66.76,66.76,66.76C-484.36,969.47-468.96,939.58-468.96,902.71z"/>
	<path id="cratere2_x5F_layer2" style="fill:#A84242;" d="M-517.74,960.54c-36.87,0-66.76-29.89-66.76-66.76
		c0-9.01,1.8-17.6,5.03-25.44c-5.42,9.65-8.52,20.78-8.52,32.63c0,36.87,29.89,66.76,66.76,66.76c23.64,0,38.44-12.3,46.03-30.83
		C-483.48,951.35-497.31,960.54-517.74,960.54z"/>
	<path id="cratere2_x5F_layer3" style="fill:#632D2D;" d="M-527.68,852.05c36.87,0,52.27,29.89,52.27,66.76
		c0,7.53-0.65,14.76-1.99,21.51c5.43-11.11,7.94-24.86,7.94-39.75c0-36.87-15.4-66.76-52.27-66.76c-32.98,0-60.36,23.92-65.77,55.36
		C-576.58,867.17-553.9,852.05-527.68,852.05z"/>
	<path id="cratere1_x5F_layer1" style="fill:#C15959;" d="M-313.8,785.79c0-12.76-9.16-32.73-29.3-23.1
		c-11.51,5.5-23.1,10.34-23.1,23.1c0,12.76,10.34,23.1,23.1,23.1S-313.8,798.55-313.8,785.79z"/>
	<path id="cratere1_x5F_layer2" style="fill:#8E4646;" d="M-318.27,783.17c0-10.59-7.6-27.16-24.31-19.17
		c-9.55,4.57-19.17,8.58-19.17,19.17c0,10.59,8.58,19.17,19.17,19.17S-318.27,793.76-318.27,783.17z"/>
	<path id="cratere1_x5F_layer3" style="fill:#6B3939;" d="M-321.64,779.87c0-8.94-6.42-22.94-20.54-16.19
		c-8.07,3.86-16.19,7.25-16.19,16.19s7.25,16.19,16.19,16.19S-321.64,788.82-321.64,779.87z"/>
	<path id="cratere5_x5F_layer3" style="fill:#A83D3D;" d="M-239.18,1155.73c0-21.28-5.7-31.78-35.35-31.78
		c-29.64,0-72,10.51-72,31.78c0,21.28,24.03,38.53,53.67,38.53C-263.21,1194.26-239.18,1177.01-239.18,1155.73z"/>
	<path id="cratere5_x5F_layer2" style="fill:#8C3030;" d="M-240.35,1160.24c0-21.28-5.7-31.78-35.35-31.78
		c-29.64,0-72,10.51-72,31.78s24.03,38.53,53.67,38.53C-264.38,1198.76-240.35,1181.51-240.35,1160.24z"/>
	<path id="cratere5_x5F_layer1" style="fill:#561D1D;" d="M-275.92,1139.51c-27.36,0-65.54,8.95-71.27,27.05
		c4.2,18.27,26.3,32.2,52.94,32.2c27.8,0,50.66-15.17,53.4-34.6C-242.27,1147.67-249.8,1139.51-275.92,1139.51z"/>
	<path id="cratere4_x5F_layer2" style="fill:#561D1D;" d="M-40.49,886.91c0-20.22-10.41-36.61-30.62-36.61s-23.19,16.39-23.19,36.61
		c0,20.22,2.97,36.61,23.19,36.61S-40.49,907.13-40.49,886.91z"/>
	<path id="cratere4_x5F_layer1" style="fill:#702525;" d="M-71.12,850.3c-1.62,0-3.12,0.12-4.52,0.32
		c17.15,2.34,25.96,17.69,25.96,36.29c0,18.6-8.81,33.95-25.96,36.29c1.41,0.2,2.9,0.32,4.52,0.32c20.22,0,30.62-16.39,30.62-36.61
		C-40.49,866.69-50.9,850.3-71.12,850.3z"/>
	
		<linearGradient id="cratere3_x5F_layer3_1_" gradientUnits="userSpaceOnUse" x1="-306.3818" y1="903.6565" x2="-147.7192" y2="903.6565">
		<stop  offset="0" style="stop-color:#592323"/>
		<stop  offset="0.0318" style="stop-color:#5D2424"/>
		<stop  offset="0.2501" style="stop-color:#762A2A"/>
		<stop  offset="0.4781" style="stop-color:#882F2F"/>
		<stop  offset="0.7202" style="stop-color:#933131"/>
		<stop  offset="1" style="stop-color:#963232"/>
	</linearGradient>
	<path id="cratere3_x5F_layer3" style="fill:url(#cratere3_x5F_layer3_1_);" d="M-147.72,902.71c0-45.97-37.26-83.23-83.23-83.23
		s-75.44,37.26-75.44,83.23c0,45.97,36.28,72.39,75.44,83.23C-186.65,998.2-147.72,948.67-147.72,902.71z"/>
	
		<linearGradient id="cratere3_x5F_layer2_2_" gradientUnits="userSpaceOnUse" x1="-306.3818" y1="903.6565" x2="-203.7683" y2="903.6565">
		<stop  offset="0" style="stop-color:#632828"/>
		<stop  offset="0.2714" style="stop-color:#672929"/>
		<stop  offset="0.563" style="stop-color:#742B2B"/>
		<stop  offset="0.863" style="stop-color:#8A3030"/>
		<stop  offset="1" style="stop-color:#963232"/>
	</linearGradient>
	<path id="cratere3_x5F_layer2" style="fill:url(#cratere3_x5F_layer2_2_);" d="M-204.04,985.94
		c-39.16-10.84-75.44-37.26-75.44-83.23c0-41.34,23.85-75.63,62.09-82.11c-4.42-0.72-8.94-1.12-13.57-1.12
		c-45.97,0-75.44,37.26-75.44,83.23c0,45.97,36.28,72.39,75.44,83.23c9.41,2.6,18.57,2.41,27.18,0.07
		C-203.86,985.98-203.95,985.96-204.04,985.94z"/>
	<path id="cratere3_x5F_layer1" style="fill:#6B2F2F;" d="M-206.34,823.25c21.86,40.55,35.1,86.42,37.26,135.19
		c13.27-14.75,21.36-34.26,21.36-55.66C-147.72,865.38-172.39,833.74-206.34,823.25z"/>
	
		<ellipse id="cratere6_x5F_layer1" transform="matrix(0.34 -0.9404 0.9404 0.34 -800.1885 186.8123)" style="fill:#8C3030;" cx="-267" cy="663.5" rx="17.09" ry="26.94"/>
	
		<ellipse id="cratere6_x5F_layer1_1_" transform="matrix(0.339 -0.9408 0.9408 0.339 -806.1624 185.6004)" style="fill:#7A2B2B;" cx="-271" cy="666.5" rx="12.47" ry="19.68"/>
</g>
<g id="fil">
	<g id="fil_1_">
		<polyline style="fill:#FFFFFF;" points="-1758,1788.7 -1611.06,1645.92 -1377.37,1418.86 -1302.08,1345.71 		"/>
		<g>
			<path style="fill:#FFFFFF;" d="M-1760,1786.64c1.15-1.45,2.29-2.9,3.47-4.32c1.26-1.52,3.51-1.73,5.03-0.47
				c1.52,1.26,1.73,3.51,0.47,5.03c-0.16,0.2-0.36,0.38-0.55,0.53c-1.45,1.14-2.94,2.24-4.42,3.34c-1.28,0.96-3.09,0.7-4.05-0.58
				C-1760.86,1789.1-1760.8,1787.64-1760,1786.64z"/>
			<path style="fill:#FFFFFF;" d="M-1729.21,1750.19c2.44-2.75,4.85-5.53,7.31-8.25c3.11-3.43,8.42-3.7,11.85-0.58
				s3.7,8.42,0.58,11.85c-0.23,0.26-0.51,0.52-0.77,0.74c-2.79,2.39-5.64,4.71-8.46,7.07c-3.21,2.69-7.99,2.26-10.67-0.94
				C-1731.8,1757.17-1731.67,1752.95-1729.21,1750.19z"/>
			<path style="fill:#FFFFFF;" d="M-1693.51,1710.92c2.49-2.7,5.02-5.35,7.54-8.01c4.31-4.55,11.48-4.75,16.03-0.44
				c4.55,4.3,4.75,11.48,0.44,16.03c-0.21,0.23-0.45,0.46-0.68,0.66c-2.74,2.44-5.46,4.9-8.23,7.31
				c-4.52,3.94-11.38,3.47-15.32-1.05C-1697.38,1721.21-1697.19,1714.94-1693.51,1710.92z"/>
			<path style="fill:#FFFFFF;" d="M-1656.82,1672.66l7.71-7.84c5.02-5.11,13.24-5.18,18.35-0.16c5.11,5.02,5.18,13.24,0.16,18.35
				c-0.13,0.13-0.3,0.29-0.43,0.42l-8.06,7.48c-5.15,4.78-13.2,4.48-17.98-0.68C-1661.71,1685.23-1661.55,1677.48-1656.82,1672.66z"
				/>
			<path style="fill:#FFFFFF;" d="M-1619.34,1635.22l7.85-7.7c5.32-5.22,13.87-5.14,19.09,0.19c5.22,5.32,5.14,13.87-0.19,19.09
				l-0.09,0.09l-7.92,7.63c-5.35,5.15-13.87,4.99-19.02-0.36C-1624.73,1648.83-1624.6,1640.38-1619.34,1635.22z"/>
			<path style="fill:#FFFFFF;" d="M-1581.31,1598.34l7.92-7.63c5.31-5.12,13.76-4.96,18.88,0.35c5.09,5.28,4.96,13.68-0.27,18.81
				l-7.85,7.69c-5.29,5.18-13.77,5.09-18.95-0.2c-5.18-5.29-5.09-13.77,0.2-18.95L-1581.31,1598.34z"/>
			<path style="fill:#FFFFFF;" d="M-1543.08,1561.67l7.97-7.57c5.18-4.91,13.36-4.7,18.27,0.47c4.84,5.1,4.69,13.13-0.26,18.06
				l-7.8,7.75c-5.11,5.08-13.37,5.06-18.46-0.05c-5.08-5.11-5.06-13.37,0.05-18.46
				C-1543.24,1561.83-1543.13,1561.73-1543.08,1561.67z"/>
			<path style="fill:#FFFFFF;" d="M-1504.61,1525.24l8.01-7.53c4.91-4.61,12.63-4.37,17.24,0.54c4.51,4.8,4.36,12.31-0.24,16.95
				l-7.76,7.79c-4.82,4.85-12.66,4.86-17.51,0.04c-4.85-4.82-4.86-12.66-0.04-17.51
				C-1504.83,1525.45-1504.7,1525.32-1504.61,1525.24z"/>
			<path style="fill:#FFFFFF;" d="M-1465.93,1489.03l8.05-7.49c4.51-4.2,11.57-3.94,15.77,0.57c4.08,4.39,3.94,11.2-0.22,15.43
				l-7.72,7.83c-4.42,4.48-11.63,4.53-16.11,0.11c-4.48-4.42-4.53-11.63-0.11-16.11
				C-1466.18,1489.27-1466.04,1489.14-1465.93,1489.03z"/>
			<path style="fill:#FFFFFF;" d="M-1427.02,1453.06l8.12-7.42c3.97-3.63,10.13-3.35,13.76,0.62c3.49,3.82,3.34,9.67-0.19,13.34
				l-7.65,7.9c-3.87,4-10.25,4.1-14.25,0.23c-4-3.87-4.1-10.25-0.23-14.25C-1427.33,1453.35-1427.17,1453.2-1427.02,1453.06z"/>
			<path style="fill:#FFFFFF;" d="M-1387.82,1417.4l8.18-7.36c3.25-2.93,8.26-2.66,11.19,0.59c2.78,3.09,2.66,7.8-0.16,10.77
				l-7.59,7.96c-3.18,3.33-8.46,3.46-11.79,0.28c-3.33-3.18-3.46-8.46-0.28-11.79C-1388.13,1417.69-1387.97,1417.53-1387.82,1417.4z
				"/>
			<path style="fill:#FFFFFF;" d="M-1348.28,1382.07l8.27-7.26c2.31-2.03,5.83-1.8,7.86,0.51c1.9,2.16,1.8,5.4-0.11,7.47l-7.5,8.06
				c-2.31,2.48-6.18,2.62-8.66,0.31s-2.62-6.18-0.31-8.66C-1348.59,1382.35-1348.43,1382.2-1348.28,1382.07z"/>
			<path style="fill:#FFFFFF;" d="M-1308.28,1347.22l4.2-3.57c1.21-1.03,3.03-0.88,4.06,0.33c0.94,1.11,0.9,2.73-0.05,3.79
				l-3.69,4.1c-1.2,1.33-3.25,1.44-4.59,0.24c-1.33-1.2-1.44-3.25-0.24-4.59C-1308.5,1347.42-1308.38,1347.31-1308.28,1347.22z"/>
		</g>
	</g>
</g>
<g id="satellite">
	
		<rect id="jointLeft" x="-1016.28" y="1573.15" transform="matrix(0.7071 0.7071 -0.7071 0.7071 834.1196 1180.4125)" style="fill:#3D3B36;" width="16.92" height="47.85"/>
	
		<rect id="joinRight" x="-866.44" y="1432.56" transform="matrix(0.7071 0.7071 -0.7071 0.7071 773.7609 1031.2759)" style="fill:#3D3B36;" width="16.92" height="34.18"/>
	<g id="ailetteGauche">
		<path style="fill:#6F6F96;" d="M-1064.89,1573.7l-145.64,145.64c-0.49,0.49-0.89,1.04-1.2,1.62c-1.34,2.54-0.94,5.76,1.2,7.9
			l64.37,64.37c2.63,2.63,6.89,2.63,9.52,0L-991,1647.58c2.63-2.63,2.63-6.89,0-9.52l-64.37-64.37
			C-1058,1571.07-1062.26,1571.07-1064.89,1573.7z"/>
		<path style="fill:#BDBDC9;" d="M-1064.54,1574.05l-112.48,112.48l-28.12,28.12l-3.52,3.51l-1.74,1.75
			c-0.52,0.57-0.92,1.23-1.2,1.95c-0.56,1.43-0.55,3.07,0,4.5c0.27,0.72,0.69,1.37,1.21,1.94c0.54,0.57,1.16,1.17,1.73,1.75
			l14.06,14.06l28.12,28.12l14.06,14.06c2.34,2.32,4.7,4.74,7.02,6.98c1.18,0.98,2.73,1.5,4.26,1.42c1.53-0.06,3.03-0.72,4.12-1.81
			l112.48-112.48l28.12-28.12l3.51-3.51c0.57-0.58,1.2-1.18,1.73-1.75c0.52-0.57,0.93-1.23,1.2-1.94c0.56-1.43,0.56-3.07-0.01-4.5
			c-0.28-0.71-0.69-1.37-1.21-1.94c-0.53-0.57-1.16-1.17-1.73-1.75l-14.06-14.06l-28.12-28.12l-14.06-14.06
			c-2.34-2.32-4.7-4.74-7.02-6.98c-1.18-0.98-2.73-1.5-4.26-1.42C-1061.96,1572.31-1063.45,1572.97-1064.54,1574.05z
			 M-1065.24,1573.35c1.25-1.27,2.98-2.07,4.77-2.16c1.79-0.11,3.62,0.47,5.05,1.6l0.52,0.45l0.45,0.43l0.9,0.86l1.8,1.71l3.65,3.38
			l14.6,13.52c9.69,9.05,18.87,18.62,28.24,27.99l14,14.11l0.88,0.88l0.44,0.44l0.22,0.22l0.26,0.29c0.71,0.77,1.27,1.69,1.65,2.67
			c0.77,1.96,0.76,4.2-0.01,6.16c-0.38,0.98-0.95,1.88-1.65,2.65l-0.27,0.29l-0.22,0.22l-0.44,0.44l-0.88,0.88l-3.53,3.5
			l-28.23,28.01l-113.03,111.92c-1.32,1.31-3.13,2.1-4.98,2.16c-1.85,0.08-3.71-0.55-5.12-1.74l-0.51-0.47l-0.44-0.44l-0.87-0.88
			l-1.75-1.77l-3.5-3.53l-13.98-14.14l-28.02-28.22l-14.03-14.09c-0.59-0.6-1.17-1.15-1.76-1.78c-0.59-0.65-1.07-1.4-1.38-2.22
			c-0.63-1.64-0.64-3.51,0.01-5.14c0.32-0.82,0.78-1.58,1.37-2.22l1.77-1.77l3.52-3.51l28.18-28.06
			c18.82-18.67,37.49-37.49,56.2-56.27L-1065.24,1573.35z"/>
	</g>
	<path id="shadowAiletteGauche" style="fill:#454560;" d="M-1011.41,1627.86l-144.63,144.63c-0.49,0.49-0.94,0.98-1.34,1.46
		c-1.76,2.09-2.67,3.99-2.09,4.57l17.58,17.58c0.72,0.72,3.42-0.82,6.03-3.43l144.5-144.98c2.61-2.61,2.26-7.31,1.54-8.03
		l-15.56-15.23C-1006.1,1623.72-1008.8,1625.25-1011.41,1627.86z"/>
	<g id="aileDroite">
		<path style="fill:#676793;" d="M-742.41,1255.72l-145.64,145.64c-0.49,0.49-0.89,1.04-1.19,1.62c-1.33,2.55-0.9,5.81,1.28,7.98
			l65.56,65.56c2.68,2.68,6.98,2.72,9.61,0.09l145.64-145.64c2.63-2.63,2.59-6.93-0.09-9.61l-65.56-65.56
			C-735.48,1253.13-739.78,1253.09-742.41,1255.72z"/>
		<path style="fill:#C4C4C4;" d="M-742.41,1255.72l-112.9,113.39l-28.19,28.38l-3.52,3.55c-0.6,0.61-1.16,1.13-1.55,1.8
			c-0.39,0.66-0.67,1.39-0.8,2.15c-0.27,1.52,0.05,3.13,0.87,4.44c0.4,0.66,0.94,1.19,1.56,1.79l1.77,1.76l14.19,14.1l28.35,28.22
			l14.16,14.12l3.54,3.53l1.77,1.77c0.58,0.56,1.21,1.24,1.74,1.69c1.15,0.95,2.65,1.46,4.13,1.4c1.49-0.05,2.93-0.67,3.98-1.72
			l113.52-112.78l28.35-28.22l3.54-3.53c0.6-0.59,1.19-1.16,1.61-1.86c0.43-0.69,0.73-1.47,0.88-2.28c0.3-1.62-0.04-3.33-0.91-4.73
			c-0.43-0.71-1.01-1.29-1.6-1.88l-1.76-1.77l-14.11-14.18l-28.26-28.32l-14.14-14.14c-2.37-2.35-4.69-4.74-7.09-7.05
			c-1.29-1.06-2.96-1.64-4.63-1.57C-739.59,1253.83-741.23,1254.54-742.41,1255.72z M-742.41,1255.72c1.16-1.2,2.8-1.93,4.48-2.01
			c1.69-0.1,3.37,0.5,4.75,1.51c2.53,2.23,4.91,4.53,7.46,6.7c2.5,2.22,5.05,4.38,7.59,6.56l7.58,6.56l3.79,3.28l3.69,3.38
			c2.49,2.22,4.84,4.59,7.25,6.9c4.75,4.68,9.42,9.44,14.14,14.15l14.11,14.17l1.76,1.77l0.44,0.44l0.23,0.24l0.3,0.33
			c0.4,0.43,0.75,0.91,1.06,1.41c1.25,2.01,1.74,4.49,1.31,6.84c-0.21,1.17-0.64,2.31-1.28,3.33c-0.32,0.51-0.67,0.99-1.08,1.43
			l-0.3,0.33l-0.22,0.22l-0.44,0.44l-3.54,3.53c-9.41,9.45-19.01,18.71-28.51,28.06l-114.43,111.87c-1.32,1.31-3.14,2.09-4.99,2.14
			c-1.85,0.07-3.7-0.58-5.11-1.75c-0.72-0.63-1.22-1.2-1.84-1.79l-1.76-1.77l-3.53-3.55l-14.12-14.16l-28.25-28.33l-14.1-14.19
			l-1.76-1.77c-0.57-0.57-1.23-1.22-1.69-1.99c-0.94-1.53-1.3-3.4-0.98-5.16c0.16-0.88,0.49-1.73,0.95-2.5
			c0.46-0.78,1.14-1.4,1.71-1.97l3.55-3.52l28.38-28.19L-742.41,1255.72z"/>
	</g>
	<path id="shadowAiletteDroite" style="fill:#45455E;" d="M-706.01,1293.37l-143.38,143.38c-0.48,0.48-0.91,0.99-1.28,1.49
		c-1.61,2.22-2.08,4.52-0.99,5.61l32.69,32.69c1.34,1.33,4.51,0.32,7.1-2.27l143.38-143.38c2.59-2.59,3.6-5.77,2.27-7.1
		l-32.69-32.69C-700.24,1289.76-703.42,1290.78-706.01,1293.37z"/>
	<path id="ailetteHgauche" style="fill:#5B6A82;" d="M-1064.89,1573.7l-145.64,145.64c-0.49,0.49-0.71,0.93-0.94,1.52
		c-0.95,2.33-0.91,3.23-0.69,3.45l0.35,1.49l0.85,1.75l2.84,3.13c0.27,0.27,2.56-1.11,5.19-3.74l145.64-145.64
		c2.63-2.63,4.15-4.81,3.88-5.08c-1.15-0.97-1.15-1.85-2.29-2.83c-0.18-0.16-0.82-0.56-1.04-0.67c-0.1-0.05-0.22-0.16-0.47-0.26
		c-0.34-0.07-0.8-0.28-1.08-0.36c-0.32-0.1-0.62-0.17-0.93-0.27c-0.63-0.2-1.28-0.25-1.95-0.23
		C-1062.64,1571.64-1063.9,1572.71-1064.89,1573.7z"/>
	<path id="ailetteHdroite" style="fill:#5B6A82;" d="M-741.18,1257.44l-142.39,143.13c-0.48,0.48-0.94,0.95-1.36,1.4
		c-1.84,1.97-2.81,3.34-2.6,3.56l-0.48,1.54l0.2,2.41l1.82,2.6l2.27,2.39c0.43-0.07,5.05-3.83,7.63-6.41l142.91-142.91
		c2.58-2.58,4.33-4.73,4.06-5l-3.93-3.62l-2.51-1.06l-1.27-0.14C-737.47,1255.37-738.6,1254.86-741.18,1257.44z"/>
	<circle id="body" style="fill:#BCB8B1;" cx="-934.5" cy="1523.5" r="95.5"/>
	<linearGradient id="lightTop2_1_" gradientUnits="userSpaceOnUse" x1="-915.6552" y1="1493.5176" x2="-883.807" y2="1449.6425">
		<stop  offset="0" style="stop-color:#ACACAC"/>
		<stop  offset="0.9062" style="stop-color:#C9B89F"/>
	</linearGradient>
	<path id="lightTop2" style="fill:url(#lightTop2_1_);" d="M-944.8,1468.09c50.31,0,92.28,35.67,102.02,83.09
		c2.68-8.8,4.13-18.14,4.13-27.82c0-52.72-42.74-95.47-95.47-95.47c-48.37,0-88.32,35.99-94.58,82.64
		C-1009.73,1484.8-979.22,1468.09-944.8,1468.09z"/>
	<path id="stripTopShadow" style="fill:#605D58;" d="M-1032.17,1533.8c1.7,9.99,6.64,23.48,11.18,32.15l121.63-131.41
		c-8.67-4.54-23.56-6.69-33.55-8.39L-1032.17,1533.8z"/>
	<path id="lightTop1" style="fill:#77685B;" d="M-932.91,1426l-43.05,46.69c9.84-3.09,20.31-4.75,31.17-4.75
		c4.6,0,9.12,0.3,13.57,0.88l31.87-34.44c-0.32-0.17-0.66-0.32-0.99-0.48C-910.85,1429.94-921.02,1426-932.91,1426
		C-933.05,1426-932.77,1426-932.91,1426z"/>
	
		<rect id="voltaiquedroite1" x="-1052.1" y="1592.05" transform="matrix(0.7071 -0.7071 0.7071 0.7071 -1466.0776 -261.4197)" style="fill:#09091C;" width="6.99" height="93.91"/>
	
		<rect id="voltaiquedroite1light" x="-1062.08" y="1596.18" transform="matrix(0.7071 -0.7071 0.7071 0.7071 -1461.9417 -271.405)" style="fill:#3E3E5B;" width="6.99" height="65.67"/>
	
		<rect id="voltaiquedroite1_1_" x="-821.38" y="1369.85" transform="matrix(0.7071 -0.7071 0.7071 0.7071 -1240.3639 -163.7795)" style="fill:#09091C;" width="6.99" height="91.02"/>
	
		<rect id="voltaiquedroite1_2_" x="-746.55" y="1294.52" transform="matrix(0.7071 -0.7071 0.7071 0.7071 -1165.5839 -132.7637)" style="fill:#09091C;" width="6.99" height="92.16"/>
	
		<rect id="voltaiquegauche2" x="-1124.79" y="1664.74" transform="matrix(0.7071 -0.7071 0.7071 0.7071 -1538.7751 -291.532)" style="fill:#09091C;" width="6.99" height="93.91"/>
	
		<rect id="voltaiquedroite1light2" x="-1134.78" y="1668.88" transform="matrix(0.7071 -0.7071 0.7071 0.7071 -1534.6392 -301.5172)" style="fill:#3E3E5B;" width="6.99" height="65.67"/>
	<path id="bodyBottomDarkGrey" style="fill:#63605C;" d="M-924.53,1619.08c52.56-4.12,90.8-49.49,86.68-102.06
		c-0.82-10.43-3.15-23.01-6.99-32.15l-130.02,127.22C-960.69,1618.48-941.11,1620.38-924.53,1619.08z"/>
	<g id="shadowbottom">
		<path style="fill:#444443;" d="M-839.05,1519.3l-16.97,22.89c-8.39,19.57-36.83,50.39-67.01,59.28l-16.89,16.53
			c4.77,0.14,9.5,0.04,14-0.32C-874.59,1613.65-836.94,1570.28-839.05,1519.3z"/>
	</g>
	
		<rect id="ledbackground" x="-991.64" y="1547.95" transform="matrix(0.689 -0.7247 0.7247 0.689 -1437.2587 -221.5969)" style="fill:#FFFFFF;" width="29.57" height="32.12"/>
	
		<rect id="ledred" x="-998.75" y="1558.94" transform="matrix(0.689 -0.7247 0.7247 0.689 -1442.7249 -232.801)" style="fill:#EF5691;" width="12.22" height="11.67"/>
	
		<rect id="ledYellow" x="-990.35" y="1566.97" transform="matrix(0.689 -0.7247 0.7247 0.689 -1445.9354 -224.2158)" style="fill:#EAE5B9;" width="12.22" height="11.67"/>
	
		<rect id="ledGrey" x="-982.32" y="1558.05" transform="matrix(0.689 -0.7247 0.7247 0.689 -1436.9679 -221.1693)" style="fill:#7C7C7C;" width="12.22" height="11.67"/>
	
		<rect id="ledWhite" x="-973.39" y="1549.12" transform="matrix(0.689 -0.7247 0.7247 0.689 -1427.7227 -217.4758)" style="fill:#FFFFFF;" width="12.22" height="11.67"/>
	
		<rect id="ledPink" x="-965.74" y="1557.58" transform="matrix(0.689 -0.7247 0.7247 0.689 -1431.3688 -209.057)" style="fill:#EABBBB;" width="12.89" height="11.67"/>
	
		<rect id="ledBlack" x="-982.32" y="1575.01" transform="matrix(0.689 -0.7247 0.7247 0.689 -1449.2596 -215.8951)" style="fill:#2D1A17;" width="12.22" height="11.67"/>
	
		<rect id="ledDarkGrey" x="-974.11" y="1566.36" transform="matrix(0.689 -0.7247 0.7247 0.689 -1440.4362 -212.6347)" style="fill:#3D3332;" width="12.22" height="11.67"/>
	
		<rect id="ledgreyLight" x="-990.35" y="1550.01" transform="matrix(0.689 -0.7247 0.7247 0.689 -1433.6437 -229.49)" style="fill:#D8D8D8;" width="12.22" height="11.67"/>
	
		<rect id="ledgreen" x="-982.41" y="1541.71" transform="matrix(0.689 -0.7247 0.7247 0.689 -1425.1544 -226.3148)" style="fill:#56E846;" width="12.22" height="11.67"/>
	<polygon id="vis4" style="fill:#282726;" points="-845.85,1524.14 -843.92,1528.93 -847.1,1532.99 -852.21,1532.28 
		-854.14,1527.49 -850.97,1523.42 	"/>
	<polygon id="vis3" style="fill:#0D1119;" points="-873.99,1549.61 -869.63,1552.37 -869.83,1557.52 -874.4,1559.93 
		-878.76,1557.17 -878.56,1552.02 	"/>
	<polygon id="vis2" style="fill:#191919;" points="-893.39,1573.07 -891.45,1577.86 -894.63,1581.92 -899.74,1581.21 
		-901.68,1576.42 -898.5,1572.35 	"/>
	<polygon id="vis1" style="fill:#282726;" points="-918.55,1596.84 -916.62,1601.62 -919.8,1605.69 -924.91,1604.97 
		-926.84,1600.19 -923.66,1596.12 	"/>
	<path id="lumiere" style="fill:#FEDF50;" d="M-889.57,1468h-2.06c-6.81,0-12.37,5.57-12.37,12.37v2.25
		c0,6.81,5.57,12.38,12.37,12.38h2.25c6.81,0,12.37-5.57,12.38-12.37l0-2.06C-878.04,1474.66-884.11,1469.4-889.57,1468z"/>
	<path id="shadowlumiere" style="fill:#EFC245;" d="M-889.38,1468h-1.83c-5.45,0-10.1,3.58-11.74,8.49
		c8.24,3.64,15.91,8.31,22.86,13.85c1.91-2.18,3.09-5.03,3.09-8.14v-1.84C-878.03,1474.56-884,1469.38-889.38,1468z"/>
	
		<rect id="lightbarre2" x="-856.22" y="1392.89" transform="matrix(0.7071 0.7071 -0.7071 0.7071 742.2749 1000.7433)" style="fill:#444444;" width="38.71" height="6.97"/>
	
		<rect id="lightbarre2_1_" x="-781.43" y="1318.1" transform="matrix(0.7071 0.7071 -0.7071 0.7071 711.294 925.9487)" style="fill:#444444;" width="38.71" height="6.97"/>
</g>
<g id="connexion">
	<g id="sea_1_">
		<circle style="fill:#6FBEDD;" cx="-313.5" cy="1523.5" r="266.5"/>
		<path style="fill:#EFEFEF;" d="M-52.94,1523.5c0.31-17.07-0.96-34.17-3.6-51.12l-0.22-1.59l-0.3-1.58l-0.61-3.16l-1.21-6.33
			c-0.35-2.12-0.95-4.19-1.44-6.28l-1.54-6.27c-0.47-2.11-1.17-4.14-1.77-6.21l-1.87-6.19c-0.57-2.08-1.38-4.08-2.08-6.12l-2.17-6.1
			c-1.46-4.07-3.28-7.99-4.95-11.98l-0.64-1.49l-0.7-1.46l-1.42-2.92c-0.95-1.94-1.88-3.9-2.85-5.83l-0.73-1.45l-0.8-1.41
			l-1.59-2.83l-3.18-5.66c-2.18-3.74-4.58-7.35-6.89-11c-9.61-14.41-20.63-27.88-32.86-40.15c-24.48-24.52-53.77-44.27-85.81-57.5
			c-32.05-13.21-66.7-19.91-101.33-19.82c-34.63,0.11-69.19,7.09-101.06,20.48c-31.88,13.35-61.05,33.07-85.35,57.57
			c-24.31,24.51-43.71,53.8-56.8,85.67c-13.17,31.85-19.88,66.29-19.83,100.74c0.07,34.45,6.9,68.84,20.16,100.6
			c6.62,15.88,14.79,31.11,24.4,45.37c9.62,14.26,20.64,27.56,32.83,39.67c24.41,24.21,53.57,43.56,85.33,56.56
			c31.75,13.04,66.05,19.63,100.32,19.51c34.28-0.15,68.47-7.02,100-20.28c31.55-13.21,60.41-32.72,84.47-56.97
			c24.05-24.26,43.3-53.23,56.19-84.79c6.46-15.78,11.3-32.19,14.57-48.9l1.13-6.29l0.57-3.14c0.2-1.05,0.38-2.1,0.49-3.15
			l0.81-6.34c0.24-2.12,0.63-4.21,0.8-6.34c0.35-4.24,0.77-8.49,1.08-12.74L-52.94,1523.5z M-41.06,1523.5
			c0.01,35.65-6.98,71.33-20.66,104.29c-13.7,32.95-34.09,63.03-59.36,88.13c-25.29,25.09-55.51,45.15-88.43,58.63
			c-32.91,13.52-68.49,20.37-103.99,20.24c-35.5-0.15-70.97-7.27-103.67-21.01c-32.72-13.69-62.63-33.91-87.57-59.04
			c-24.93-25.14-44.87-55.17-58.3-87.87c-6.72-16.35-11.81-33.36-15.19-50.7c-3.38-17.34-5.02-35-5.06-52.66
			c0.02-35.31,6.97-70.63,20.53-103.25c13.46-32.65,33.36-62.65,58.3-87.72c24.92-25.08,54.81-45.24,87.48-58.88
			c32.65-13.69,68.06-20.76,103.49-20.89c35.43-0.1,70.92,6.75,103.74,20.27c32.84,13.47,62.96,33.51,88.16,58.55
			c12.59,12.53,23.96,26.29,33.89,41.03c9.94,14.73,18.48,30.43,25.38,46.83C-48.47,1452.25-41.27,1487.85-41.06,1523.5z"/>
	</g>
	<path id="america_1_" style="fill:#A6F294;stroke:#2A3826;stroke-miterlimit:10;" d="M-407.06,1287.88
		c-16.28,0-26.81,1.91-58.41,25.85c-20.14,15.26-44.24,35.88-64.15,69.9c-24.5,41.87-45.64,100.04-30.16,114.42
		c1.97,1.82,13.99,12.32,20.59,18.67c4.59,4.42,10.16,9.86,15.32,18.19c4.72,7.63,8.5,13.75,8.62,22.02
		c0.09,6.27-2.05,5.48-3.83,17.23c-1.4,9.23-0.24,10.76-1.91,20.11c-1.58,8.84-2.88,8.94-2.87,13.4c0.01,7.28,3.47,12.52,8.62,20.11
		c7.2,10.6,14.71,17.34,21.06,22.98c6.4,5.67,10.57,9.36,17.23,13.4c6.94,4.2,10.41,5.05,15.32,9.57c5.03,4.64,7.73,9.61,9.57,13.4
		c8.97,18.42,10.69,35.27,15.32,45.96c13.62,31.47,66.23,41.49,72.77,32.55c2.03-2.78-1.2-6.29,0-20.11
		c0.37-4.24,0.65-3.63,1.91-12.45c1.7-11.83,1.38-14.2,2.87-22.98c1.29-7.61,1.94-11.41,2.87-13.4
		c5.33-11.4,15.66-10.63,22.02-20.11c5.25-7.82,12.79-27.3,14.36-41.17c3.09-27.3,3.38-28.75-0.96-38.3
		c-5.12-11.29-13.94-3.16-44.04-18.19c-17.81-8.89-38.19-26.07-44.04-32.55c-11.51-12.75-19.68-9.13-32.55-14.36
		c-12.88-5.23-16.95,1.14-24.89-3.83c-15.94-9.97-13.52-40.49-11.49-66.07c2.1-26.45,8.26-35.31,10.53-38.3
		c8.89-11.68,21.06-18.19,21.06-18.19c6.65-3.56,10.26-3.85,16.28-8.62c7.74-6.13,6.29-9.23,12.45-14.36
		c11.2-9.34,20.42-2.8,28.72-11.49c5.29-5.54,2.87-9.58,8.62-19.15c6.23-10.38,11.99-9.28,16.28-16.28
		c7.25-11.84,3.63-33.31-9.57-44.04C-385.56,1281.94-399.13,1287.88-407.06,1287.88z"/>
	<path id="africa_1_" style="fill:#A6F294;stroke:#102E3A;stroke-miterlimit:10;" d="M-250.88,1303.34
		c-2.73,2.41-6.66,6.1-11.01,11.01c-5.05,5.7-5.37,7.07-8.62,9.57c-7.4,5.7-12.15,3.52-14.36,7.66c-2.62,4.91,3.5,9,1.91,17.23
		c-1.14,5.94-4.66,5.59-7.66,12.45c-3.23,7.38-3.57,17.92,0.96,25.85c4.37,7.65,11.05,8.99,10.53,13.4
		c-0.42,3.52-4.96,5.03-9.57,7.66c-13.38,7.61-21.29,21.09-23.94,29.68c-1.5,4.85-0.36,13.13,1.91,29.68
		c2.49,18.09,3.73,27.13,6.7,32.55c4.71,8.59,12.4,14.34,27.77,25.85c9.51,7.12,13.35,8.68,16.28,9.57c4.12,1.26,8.03,1.67,24.89,0
		c21.23-2.11,26.96-3.95,36.38-0.96c3.33,1.06,7.79,2.48,11.49,5.74c10.82,9.56,6.97,27.79,4.79,51.7
		c-3.02,33.04-5.85,68.49,12.45,91.92c6.03,7.72,10.93,9.76,13.4,10.53c15.79,4.95,36.56-8.87,47.87-23.94
		c12.64-16.82,9.41-29.75,24.89-40.21c6.93-4.68,4.4-3.98,9.1-9.1c7.63-8.3,10.55-17.32,12.45-35.43
		c1.9-18.14,5.82-23.69,7.18-33.99c2.75-20.83,4.72-92.02-36.86-159.42c-21.64-35.08-41.49-51.56-65.11-70.85
		c-23.86-19.49-60.57-45.49-80.91-34.95C-244.91,1290.19-248.7,1297.21-250.88,1303.34z"/>
	<path id="corps_3_" style="fill:#09091C;" d="M-79.57,1641.06c-17.57-25.57-49.61-45.78-72.4-55.1
		c-9.79-4.01-41.43-16.96-56.36-3.88c-6.27,5.49-6.34,12.73-17.51,24.92c0,0-7.73,8.45-19.38,15.83
		c-22.78,14.43-49.22,13.89-66.14,17.66c-14.43-1.53-31.39,2.54-55.15-9.35c-12.33-6.17-20.88-13.8-20.88-13.8
		c-12.34-11.01-13.14-18.2-19.92-23.03c-16.17-11.52-46.35,4.56-55.69,9.53c-22.46,11.96-53.59,36.48-67.93,64.87
		c47.56,66.5,124.96,110.34,212.98,111.67C-215.36,1781.94-125.44,1725.34-79.57,1641.06z"/>
	<circle id="tete_2_" style="fill:#09091C;" cx="-313" cy="1519" r="103"/>
	<path id="light" style="fill:#231D17;" d="M-347.34,1638.01c-5.88-1.29-12.24-3.39-19.18-6.86c-12.33-6.17-20.88-13.8-20.88-13.8
		c-12.34-11.01-13.14-18.2-19.92-23.03c-16.17-11.52-46.35,4.56-55.69,9.53c-22.46,11.96-53.59,36.48-67.93,64.87
		c47.56,66.5,124.96,110.34,212.98,111.67c21.38,0.32,42.2-1.89,62.2-6.34C-304.27,1745.53-338.95,1696.03-347.34,1638.01z"/>
	<path id="ligth" style="fill:#231D17;" d="M-243.44,1443.42c-17.92-16.52-41.75-26.76-68.04-27.16
		c-56.74-0.86-103.44,44.44-104.3,101.19c-0.63,41.84,23.84,78.22,59.48,94.78C-354.55,1536.78-308.65,1472.24-243.44,1443.42z"/>
</g>
</svg>
