<?xml version="1.0" encoding="utf-8"?>
<!-- Generator: Adobe Illustrator 23.0.2, SVG Export Plug-In . SVG Version: 6.00 Build 0)  -->
<svg version="1.1" id="fil" xmlns="http://www.w3.org/2000/svg" xmlns:xlink="http://www.w3.org/1999/xlink" x="0px" y="0px"
	 width="461.29px" height="448.37px" viewBox="0 0 461.29 448.37" style="enable-background:new 0 0 461.29 448.37;"
	 xml:space="preserve">
<g id="fil_1_">
	<polyline style="fill:#FFFFFF;" points="2.63,445.73 149.57,302.96 383.26,75.9 458.55,2.74 	"/>
	<g>
		<path style="fill:#FFFFFF;" d="M0.63,443.67c1.15-1.45,2.29-2.9,3.47-4.32c1.26-1.52,3.51-1.73,5.03-0.47
			c1.52,1.26,1.73,3.51,0.47,5.03c-0.16,0.2-0.36,0.38-0.55,0.53c-1.45,1.14-2.94,2.24-4.42,3.34c-1.28,0.96-3.09,0.7-4.05-0.58
			C-0.23,446.13-0.17,444.68,0.63,443.67z"/>
		<path style="fill:#FFFFFF;" d="M31.42,407.22c2.44-2.75,4.85-5.53,7.31-8.25c3.11-3.43,8.42-3.7,11.85-0.58s3.7,8.42,0.58,11.85
			c-0.23,0.26-0.51,0.52-0.77,0.74c-2.79,2.39-5.64,4.71-8.46,7.07c-3.21,2.69-7.99,2.26-10.67-0.94
			C28.83,414.2,28.96,409.98,31.42,407.22z"/>
		<path style="fill:#FFFFFF;" d="M67.12,367.95c2.49-2.7,5.02-5.35,7.54-8.01c4.31-4.55,11.48-4.75,16.03-0.44
			c4.55,4.31,4.75,11.48,0.44,16.03c-0.21,0.23-0.45,0.46-0.68,0.66c-2.74,2.44-5.46,4.9-8.23,7.31
			c-4.52,3.94-11.38,3.47-15.32-1.05C63.25,378.24,63.44,371.97,67.12,367.95z"/>
		<path style="fill:#FFFFFF;" d="M103.81,329.69l7.71-7.84c5.02-5.11,13.24-5.18,18.35-0.16c5.11,5.02,5.18,13.24,0.16,18.35
			c-0.13,0.13-0.3,0.29-0.43,0.42l-8.06,7.48c-5.15,4.78-13.2,4.48-17.98-0.68C98.92,342.26,99.08,334.51,103.81,329.69z"/>
		<path style="fill:#FFFFFF;" d="M141.29,292.25l7.85-7.7c5.32-5.22,13.87-5.14,19.09,0.19c5.22,5.32,5.14,13.87-0.19,19.09
			l-0.09,0.09l-7.92,7.63c-5.35,5.15-13.87,4.99-19.02-0.36C135.9,305.86,136.03,297.41,141.29,292.25z"/>
		<path style="fill:#FFFFFF;" d="M179.32,255.37l7.92-7.63c5.31-5.12,13.76-4.96,18.88,0.35c5.09,5.28,4.96,13.68-0.27,18.81
			l-7.85,7.69c-5.29,5.18-13.77,5.09-18.95-0.2c-5.18-5.29-5.09-13.77,0.2-18.95L179.32,255.37z"/>
		<path style="fill:#FFFFFF;" d="M217.55,218.71l7.97-7.57c5.18-4.91,13.36-4.7,18.27,0.48c4.84,5.1,4.69,13.13-0.26,18.06
			l-7.8,7.75c-5.11,5.08-13.37,5.06-18.46-0.05c-5.08-5.11-5.06-13.37,0.05-18.46C217.39,218.86,217.5,218.76,217.55,218.71z"/>
		<path style="fill:#FFFFFF;" d="M256.02,182.27l8.01-7.53c4.91-4.61,12.63-4.37,17.24,0.54c4.51,4.8,4.36,12.31-0.24,16.95
			l-7.76,7.79c-4.82,4.85-12.66,4.86-17.51,0.04c-4.85-4.82-4.86-12.66-0.04-17.51C255.8,182.48,255.93,182.36,256.02,182.27z"/>
		<path style="fill:#FFFFFF;" d="M294.7,146.07l8.05-7.49c4.51-4.2,11.57-3.94,15.77,0.57c4.08,4.39,3.94,11.2-0.22,15.43
			l-7.72,7.83c-4.42,4.48-11.63,4.53-16.11,0.11s-4.53-11.63-0.11-16.11C294.45,146.3,294.59,146.17,294.7,146.07z"/>
		<path style="fill:#FFFFFF;" d="M333.61,110.1l8.12-7.42c3.97-3.63,10.13-3.35,13.76,0.62c3.49,3.82,3.34,9.67-0.19,13.34
			l-7.65,7.9c-3.87,4-10.25,4.1-14.25,0.23c-4-3.87-4.1-10.25-0.23-14.25C333.3,110.39,333.46,110.23,333.61,110.1z"/>
		<path style="fill:#FFFFFF;" d="M372.81,74.43l8.18-7.36c3.25-2.93,8.26-2.66,11.19,0.59c2.78,3.09,2.66,7.8-0.16,10.77l-7.59,7.96
			c-3.18,3.33-8.46,3.46-11.79,0.28c-3.33-3.18-3.46-8.46-0.28-11.79C372.5,74.72,372.66,74.57,372.81,74.43z"/>
		<path style="fill:#FFFFFF;" d="M412.35,39.1l8.27-7.26c2.31-2.03,5.83-1.8,7.86,0.51c1.9,2.16,1.8,5.4-0.11,7.47l-7.5,8.06
			c-2.31,2.48-6.18,2.62-8.66,0.31s-2.62-6.18-0.31-8.66C412.04,39.38,412.2,39.23,412.35,39.1z"/>
		<path style="fill:#FFFFFF;" d="M452.35,4.25l4.2-3.57c1.21-1.03,3.03-0.88,4.06,0.33c0.94,1.11,0.9,2.73-0.05,3.79l-3.69,4.1
			c-1.2,1.33-3.25,1.44-4.59,0.24c-1.33-1.2-1.44-3.25-0.24-4.59C452.13,4.45,452.25,4.34,452.35,4.25z"/>
	</g>
</g>
</svg>
