<?xml version="1.0" encoding="utf-8"?>
<!-- Generator: Adobe Illustrator 23.0.2, SVG Export Plug-In . SVG Version: 6.00 Build 0)  -->
<svg version="1.1" id="options" xmlns="http://www.w3.org/2000/svg" xmlns:xlink="http://www.w3.org/1999/xlink" x="0px" y="0px"
	 width="550.59px" height="542.58px" viewBox="0 0 550.59 542.58" style="enable-background:new 0 0 550.59 542.58;"
	 xml:space="preserve">
<rect id="jointLeft" x="196.6" y="319.45" transform="matrix(0.7071 0.7071 -0.7071 0.7071 302.8658 -44.4267)" style="fill:#3D3B36;" width="16.92" height="47.85"/>
<rect id="joinRight" x="346.45" y="178.86" transform="matrix(0.7071 0.7071 -0.7071 0.7071 242.5071 -193.5634)" style="fill:#3D3B36;" width="16.92" height="34.18"/>
<g id="ailetteGauche">
	<path style="fill:#6F6F96;" d="M148,320L2.36,465.64c-0.49,0.49-0.89,1.04-1.2,1.62c-1.34,2.54-0.94,5.76,1.2,7.9l64.37,64.37
		c2.63,2.63,6.89,2.63,9.52,0l145.64-145.64c2.63-2.63,2.63-6.89,0-9.52L157.51,320C154.89,317.37,150.62,317.37,148,320z"/>
	<path style="fill:#BDBDC9;" d="M148.35,320.35L35.87,432.83L7.75,460.95l-3.51,3.51l-1.74,1.75c-0.52,0.57-0.92,1.23-1.2,1.95
		c-0.56,1.43-0.55,3.07,0,4.5c0.27,0.72,0.69,1.37,1.21,1.94c0.54,0.57,1.16,1.17,1.73,1.75l14.06,14.06l28.12,28.12l14.06,14.06
		c2.34,2.32,4.7,4.74,7.02,6.98c1.18,0.98,2.73,1.5,4.26,1.42c1.53-0.06,3.03-0.72,4.12-1.81l112.48-112.48l28.12-28.12l3.51-3.51
		c0.57-0.58,1.2-1.18,1.73-1.75c0.52-0.57,0.93-1.23,1.2-1.94c0.56-1.43,0.56-3.07-0.01-4.5c-0.28-0.71-0.69-1.37-1.21-1.94
		c-0.53-0.57-1.16-1.17-1.73-1.75l-14.06-14.06L177.81,341l-14.06-14.06c-2.34-2.32-4.7-4.74-7.02-6.98
		c-1.18-0.98-2.73-1.5-4.26-1.42C150.93,318.61,149.44,319.27,148.35,320.35z M147.64,319.65c1.25-1.27,2.98-2.07,4.77-2.16
		c1.79-0.11,3.62,0.47,5.05,1.6l0.52,0.45l0.45,0.43l0.9,0.86l1.8,1.71l3.65,3.38l14.6,13.52c9.69,9.05,18.87,18.62,28.24,27.99
		l14,14.11l0.88,0.88l0.44,0.44l0.22,0.22l0.26,0.29c0.71,0.78,1.27,1.69,1.65,2.67c0.77,1.96,0.76,4.2-0.01,6.16
		c-0.38,0.98-0.95,1.88-1.65,2.65l-0.27,0.29l-0.22,0.22l-0.44,0.44l-0.88,0.88l-3.53,3.5l-28.23,28.01L76.81,540.1
		c-1.32,1.31-3.13,2.1-4.98,2.16c-1.85,0.08-3.71-0.55-5.12-1.74l-0.51-0.47l-0.44-0.44l-0.87-0.88l-1.75-1.77l-3.5-3.53
		L45.66,519.3l-28.02-28.22L3.61,476.99c-0.59-0.6-1.17-1.15-1.76-1.78c-0.59-0.65-1.07-1.4-1.38-2.22
		c-0.63-1.64-0.64-3.51,0.01-5.14c0.32-0.82,0.78-1.58,1.37-2.22l1.77-1.77l3.52-3.51l28.18-28.06
		c18.82-18.67,37.49-37.49,56.2-56.27L147.64,319.65z"/>
</g>
<path id="shadowAiletteGauche" style="fill:#454560;" d="M201.48,374.17L56.85,518.8c-0.49,0.49-0.94,0.98-1.34,1.46
	c-1.76,2.09-2.67,3.99-2.09,4.57L71,542.4c0.72,0.72,3.42-0.82,6.03-3.43l144.5-144.98c2.61-2.61,2.26-7.31,1.54-8.03l-15.56-15.23
	C206.79,370.02,204.09,371.55,201.48,374.17z"/>
<g id="aileDroite">
	<path style="fill:#676793;" d="M470.48,2.02L324.84,147.66c-0.49,0.49-0.89,1.04-1.19,1.62c-1.33,2.55-0.9,5.81,1.28,7.98
		l65.56,65.56c2.68,2.68,6.98,2.72,9.61,0.09L545.74,77.28c2.63-2.63,2.59-6.93-0.09-9.61L480.08,2.11
		C477.41-0.57,473.11-0.61,470.48,2.02z"/>
	<path style="fill:#C4C4C4;" d="M470.48,2.02l-112.9,113.39l-28.19,28.38l-3.52,3.55c-0.6,0.61-1.16,1.13-1.55,1.8
		c-0.39,0.66-0.67,1.39-0.8,2.15c-0.27,1.52,0.05,3.13,0.87,4.44c0.4,0.66,0.94,1.19,1.56,1.79l1.77,1.76l14.19,14.1l28.35,28.22
		l14.16,14.12l3.54,3.53l1.77,1.77c0.58,0.56,1.21,1.24,1.74,1.69c1.15,0.95,2.65,1.46,4.13,1.4c1.49-0.05,2.93-0.67,3.98-1.72
		l113.52-112.78l28.35-28.22l3.54-3.53c0.6-0.59,1.19-1.16,1.61-1.86c0.43-0.69,0.73-1.47,0.88-2.28c0.3-1.62-0.04-3.33-0.91-4.73
		c-0.43-0.71-1.01-1.29-1.6-1.88l-1.76-1.77l-14.11-14.18l-28.26-28.32L486.68,8.71c-2.37-2.35-4.69-4.74-7.09-7.05
		c-1.29-1.06-2.96-1.64-4.63-1.57C473.29,0.13,471.66,0.84,470.48,2.02z M470.48,2.02c1.16-1.2,2.8-1.93,4.48-2.01
		c1.69-0.1,3.37,0.5,4.75,1.51c2.53,2.23,4.91,4.53,7.46,6.7c2.5,2.22,5.05,4.38,7.59,6.56l7.58,6.56l3.79,3.28l3.69,3.38
		c2.49,2.22,4.84,4.59,7.25,6.9c4.75,4.68,9.42,9.44,14.14,14.15l14.11,14.17l1.76,1.77l0.44,0.44l0.23,0.24l0.3,0.33
		c0.4,0.43,0.75,0.91,1.06,1.41c1.25,2.01,1.74,4.49,1.31,6.84c-0.21,1.17-0.64,2.31-1.28,3.33c-0.32,0.51-0.67,0.99-1.08,1.43
		l-0.3,0.33l-0.22,0.22l-0.44,0.44l-3.54,3.53c-9.41,9.45-19.01,18.71-28.51,28.06L400.63,223.45c-1.32,1.31-3.14,2.09-4.99,2.14
		c-1.85,0.07-3.7-0.58-5.11-1.75c-0.72-0.63-1.22-1.2-1.84-1.79l-1.76-1.77l-3.53-3.55l-14.12-14.16l-28.25-28.33l-14.1-14.19
		l-1.76-1.77c-0.57-0.57-1.23-1.22-1.69-1.99c-0.94-1.53-1.3-3.4-0.98-5.16c0.16-0.88,0.49-1.73,0.95-2.5
		c0.46-0.78,1.14-1.4,1.71-1.97l3.55-3.52l28.38-28.19L470.48,2.02z"/>
</g>
<path id="shadowAiletteDroite" style="fill:#45455E;" d="M506.88,39.67L363.5,183.05c-0.48,0.48-0.91,0.99-1.28,1.49
	c-1.61,2.22-2.08,4.52-0.99,5.61l32.69,32.69c1.34,1.33,4.51,0.32,7.1-2.27L544.4,77.19c2.59-2.59,3.6-5.77,2.27-7.1L513.98,37.4
	C512.65,36.06,509.47,37.08,506.88,39.67z"/>
<path id="ailetteHgauche" style="fill:#5B6A82;" d="M148,320L2.36,465.64c-0.49,0.49-0.71,0.93-0.94,1.52
	c-0.95,2.33-0.91,3.23-0.69,3.45l0.35,1.49l0.85,1.75l2.84,3.13c0.27,0.27,2.56-1.11,5.19-3.74l145.64-145.64
	c2.63-2.63,4.15-4.81,3.88-5.08c-1.15-0.97-1.15-1.85-2.29-2.83c-0.18-0.16-0.82-0.56-1.04-0.67c-0.1-0.05-0.22-0.16-0.47-0.26
	c-0.34-0.07-0.8-0.28-1.08-0.36c-0.32-0.1-0.62-0.17-0.93-0.27c-0.63-0.2-1.28-0.25-1.95-0.23C150.25,317.94,148.98,319.01,148,320z
	"/>
<path id="ailetteHdroite" style="fill:#5B6A82;" d="M471.71,3.74L329.32,146.87c-0.48,0.48-0.94,0.95-1.36,1.4
	c-1.84,1.97-2.81,3.34-2.6,3.56l-0.48,1.54l0.2,2.41l1.82,2.6l2.27,2.39c0.43-0.07,5.05-3.83,7.63-6.41L479.73,11.45
	c2.58-2.58,4.33-4.73,4.06-5l-3.93-3.62l-2.51-1.06l-1.27-0.14C475.42,1.67,474.29,1.16,471.71,3.74z"/>
<circle id="body" style="fill:#BCB8B1;" cx="278.38" cy="269.8" r="95.5"/>
<linearGradient id="lightTop2_1_" gradientUnits="userSpaceOnUse" x1="297.2296" y1="239.8178" x2="329.0778" y2="195.9427">
	<stop  offset="0" style="stop-color:#ACACAC"/>
	<stop  offset="0.9062" style="stop-color:#C9B89F"/>
</linearGradient>
<path id="lightTop2" style="fill:url(#lightTop2_1_);" d="M268.09,214.39c50.31,0,92.28,35.67,102.02,83.09
	c2.68-8.8,4.13-18.14,4.13-27.82c0-52.72-42.74-95.47-95.47-95.47c-48.37,0-88.32,35.99-94.58,82.64
	C203.15,231.1,233.66,214.39,268.09,214.39z"/>
<path id="stripTopShadow" style="fill:#605D58;" d="M180.71,280.1c1.7,9.99,6.64,23.48,11.18,32.15l121.63-131.41
	c-8.67-4.54-23.56-6.69-33.55-8.39L180.71,280.1z"/>
<path id="lightTop1" style="fill:#77685B;" d="M279.97,172.3l-43.05,46.69c9.84-3.09,20.31-4.75,31.17-4.75
	c4.6,0,9.12,0.3,13.57,0.88l31.87-34.44c-0.32-0.17-0.66-0.32-0.99-0.48C302.04,176.24,291.86,172.3,279.97,172.3
	C279.83,172.3,280.11,172.3,279.97,172.3z"/>
<rect id="voltaiquedroite1" x="160.79" y="338.35" transform="matrix(0.7071 -0.7071 0.7071 0.7071 -224.3323 229.0192)" style="fill:#09091C;" width="6.99" height="93.91"/>
<rect id="voltaiquedroite1light" x="150.8" y="342.48" transform="matrix(0.7071 -0.7071 0.7071 0.7071 -220.1963 219.034)" style="fill:#3E3E5B;" width="6.99" height="65.67"/>
<rect id="voltaiquedroite1_1_" x="391.51" y="116.15" transform="matrix(0.7071 -0.7071 0.7071 0.7071 1.3814 326.6594)" style="fill:#09091C;" width="6.99" height="91.02"/>
<rect id="voltaiquedroite1_2_" x="466.34" y="40.82" transform="matrix(0.7071 -0.7071 0.7071 0.7071 76.1615 357.6752)" style="fill:#09091C;" width="6.99" height="92.16"/>
<rect id="voltaiquegauche2" x="88.09" y="411.04" transform="matrix(0.7071 -0.7071 0.7071 0.7071 -297.0298 198.9069)" style="fill:#09091C;" width="6.99" height="93.91"/>
<rect id="voltaiquedroite1light2" x="78.11" y="415.18" transform="matrix(0.7071 -0.7071 0.7071 0.7071 -292.8938 188.9217)" style="fill:#3E3E5B;" width="6.99" height="65.67"/>
<path id="bodyBottomDarkGrey" style="fill:#63605C;" d="M288.36,365.38c52.56-4.12,90.8-49.49,86.68-102.06
	c-0.82-10.43-3.15-23.01-6.99-32.15L238.03,358.39C252.19,364.78,271.78,366.68,288.36,365.38z"/>
<g id="shadowbottom">
	<path style="fill:#444443;" d="M373.84,265.6l-16.97,22.89c-8.39,19.57-36.83,50.39-67.01,59.28l-16.89,16.53
		c4.77,0.14,9.5,0.04,14-0.32C338.29,359.95,375.95,316.58,373.84,265.6z"/>
</g>
<rect id="ledbackground" x="221.25" y="294.25" transform="matrix(0.689 -0.7247 0.7247 0.689 -151.4901 267.5576)" style="fill:#FFFFFF;" width="29.57" height="32.12"/>
<rect id="ledred" x="214.13" y="305.24" transform="matrix(0.689 -0.7247 0.7247 0.689 -156.9563 256.3534)" style="fill:#EF5691;" width="12.22" height="11.67"/>
<rect id="ledYellow" x="222.53" y="313.27" transform="matrix(0.689 -0.7247 0.7247 0.689 -160.1669 264.9386)" style="fill:#EAE5B9;" width="12.22" height="11.67"/>
<rect id="ledGrey" x="230.57" y="304.35" transform="matrix(0.689 -0.7247 0.7247 0.689 -151.1993 267.9852)" style="fill:#7C7C7C;" width="12.22" height="11.67"/>
<rect id="ledWhite" x="239.49" y="295.42" transform="matrix(0.689 -0.7247 0.7247 0.689 -141.9541 271.6786)" style="fill:#FFFFFF;" width="12.22" height="11.67"/>
<rect id="ledPink" x="247.15" y="303.88" transform="matrix(0.689 -0.7247 0.7247 0.689 -145.6003 280.0974)" style="fill:#EABBBB;" width="12.89" height="11.67"/>
<rect id="ledBlack" x="230.57" y="321.31" transform="matrix(0.689 -0.7247 0.7247 0.689 -163.491 273.2593)" style="fill:#2D1A17;" width="12.22" height="11.67"/>
<rect id="ledDarkGrey" x="238.78" y="312.66" transform="matrix(0.689 -0.7247 0.7247 0.689 -154.6676 276.5197)" style="fill:#3D3332;" width="12.22" height="11.67"/>
<rect id="ledgreyLight" x="222.53" y="296.31" transform="matrix(0.689 -0.7247 0.7247 0.689 -147.8752 259.6645)" style="fill:#D8D8D8;" width="12.22" height="11.67"/>
<rect id="ledgreen" x="230.48" y="288.01" transform="matrix(0.689 -0.7247 0.7247 0.689 -139.3859 262.8396)" style="fill:#56E846;" width="12.22" height="11.67"/>
<polygon id="vis4" style="fill:#282726;" points="367.03,270.44 368.96,275.23 365.79,279.29 360.68,278.58 358.74,273.79 
	361.92,269.72 "/>
<polygon id="vis3" style="fill:#0D1119;" points="338.89,295.91 343.26,298.67 343.05,303.82 338.49,306.23 334.12,303.48 
	334.32,298.32 "/>
<polygon id="vis2" style="fill:#191919;" points="319.5,319.37 321.43,324.16 318.25,328.23 313.14,327.51 311.21,322.72 
	314.39,318.65 "/>
<polygon id="vis1" style="fill:#282726;" points="294.33,343.14 296.27,347.92 293.09,351.99 287.98,351.27 286.04,346.49 
	289.22,342.42 "/>
<path id="lumiere" style="fill:#FEDF50;" d="M323.32,214.3l-2.06,0c-6.81,0-12.37,5.57-12.37,12.37v2.25
	c0,6.81,5.57,12.37,12.37,12.37h2.25c6.81,0,12.37-5.57,12.37-12.37l0-2.06C334.84,220.96,328.77,215.7,323.32,214.3z"/>
<path id="shadowlumiere" style="fill:#EFC245;" d="M323.51,214.3h-1.83c-5.45,0-10.1,3.58-11.74,8.49
	c8.24,3.64,15.91,8.31,22.86,13.85c1.91-2.18,3.09-5.03,3.09-8.14v-1.84C334.86,220.86,328.88,215.68,323.51,214.3z"/>
<rect id="lightbarre2" x="356.66" y="139.19" transform="matrix(0.7071 0.7071 -0.7071 0.7071 211.021 -224.0959)" style="fill:#444444;" width="38.71" height="6.97"/>
<rect id="lightbarre2_1_" x="431.46" y="64.4" transform="matrix(0.7071 0.7071 -0.7071 0.7071 180.0401 -298.8905)" style="fill:#444444;" width="38.71" height="6.97"/>
</svg>
